%!PS-Adobe-2.0 EPSF-2.0
%%Title: nb-nthr-time-nm-dgemm-kilburn.eps
%%Creator: gnuplot 5.0 patchlevel 6
%%CreationDate: Mon Jul 24 13:43:51 2017
%%DocumentFonts: (atend)
%%BoundingBox: 50 50 410 302
%%EndComments
%%BeginProlog
/gnudict 256 dict def
gnudict begin
%
% The following true/false flags may be edited by hand if desired.
% The unit line width and grayscale image gamma correction may also be changed.
%
/Color true def
/Blacktext false def
/Solid false def
/Dashlength 1 def
/Landscape false def
/Level1 false def
/Level3 false def
/Rounded false def
/ClipToBoundingBox false def
/SuppressPDFMark false def
/TransparentPatterns false def
/gnulinewidth 5.000 def
/userlinewidth gnulinewidth def
/Gamma 1.0 def
/BackgroundColor {-1.000 -1.000 -1.000} def
%
/vshift -73 def
/dl1 {
  10.0 Dashlength userlinewidth gnulinewidth div mul mul mul
  Rounded { currentlinewidth 0.75 mul sub dup 0 le { pop 0.01 } if } if
} def
/dl2 {
  10.0 Dashlength userlinewidth gnulinewidth div mul mul mul
  Rounded { currentlinewidth 0.75 mul add } if
} def
/hpt_ 31.5 def
/vpt_ 31.5 def
/hpt hpt_ def
/vpt vpt_ def
/doclip {
  ClipToBoundingBox {
    newpath 50 50 moveto 410 50 lineto 410 302 lineto 50 302 lineto closepath
    clip
  } if
} def
%
% Gnuplot Prolog Version 5.1 (Oct 2015)
%
%/SuppressPDFMark true def
%
/M {moveto} bind def
/L {lineto} bind def
/R {rmoveto} bind def
/V {rlineto} bind def
/N {newpath moveto} bind def
/Z {closepath} bind def
/C {setrgbcolor} bind def
/f {rlineto fill} bind def
/g {setgray} bind def
/Gshow {show} def   % May be redefined later in the file to support UTF-8
/vpt2 vpt 2 mul def
/hpt2 hpt 2 mul def
/Lshow {currentpoint stroke M 0 vshift R 
	Blacktext {gsave 0 setgray textshow grestore} {textshow} ifelse} def
/Rshow {currentpoint stroke M dup stringwidth pop neg vshift R
	Blacktext {gsave 0 setgray textshow grestore} {textshow} ifelse} def
/Cshow {currentpoint stroke M dup stringwidth pop -2 div vshift R 
	Blacktext {gsave 0 setgray textshow grestore} {textshow} ifelse} def
/UP {dup vpt_ mul /vpt exch def hpt_ mul /hpt exch def
  /hpt2 hpt 2 mul def /vpt2 vpt 2 mul def} def
/DL {Color {setrgbcolor Solid {pop []} if 0 setdash}
 {pop pop pop 0 setgray Solid {pop []} if 0 setdash} ifelse} def
/BL {stroke userlinewidth 2 mul setlinewidth
	Rounded {1 setlinejoin 1 setlinecap} if} def
/AL {stroke userlinewidth 2 div setlinewidth
	Rounded {1 setlinejoin 1 setlinecap} if} def
/UL {dup gnulinewidth mul /userlinewidth exch def
	dup 1 lt {pop 1} if 10 mul /udl exch def} def
/PL {stroke userlinewidth setlinewidth
	Rounded {1 setlinejoin 1 setlinecap} if} def
3.8 setmiterlimit
% Classic Line colors (version 5.0)
/LCw {1 1 1} def
/LCb {0 0 0} def
/LCa {0 0 0} def
/LC0 {1 0 0} def
/LC1 {0 1 0} def
/LC2 {0 0 1} def
/LC3 {1 0 1} def
/LC4 {0 1 1} def
/LC5 {1 1 0} def
/LC6 {0 0 0} def
/LC7 {1 0.3 0} def
/LC8 {0.5 0.5 0.5} def
% Default dash patterns (version 5.0)
/LTB {BL [] LCb DL} def
/LTw {PL [] 1 setgray} def
/LTb {PL [] LCb DL} def
/LTa {AL [1 udl mul 2 udl mul] 0 setdash LCa setrgbcolor} def
/LT0 {PL [] LC0 DL} def
/LT1 {PL [2 dl1 3 dl2] LC1 DL} def
/LT2 {PL [1 dl1 1.5 dl2] LC2 DL} def
/LT3 {PL [6 dl1 2 dl2 1 dl1 2 dl2] LC3 DL} def
/LT4 {PL [1 dl1 2 dl2 6 dl1 2 dl2 1 dl1 2 dl2] LC4 DL} def
/LT5 {PL [4 dl1 2 dl2] LC5 DL} def
/LT6 {PL [1.5 dl1 1.5 dl2 1.5 dl1 1.5 dl2 1.5 dl1 6 dl2] LC6 DL} def
/LT7 {PL [3 dl1 3 dl2 1 dl1 3 dl2] LC7 DL} def
/LT8 {PL [2 dl1 2 dl2 2 dl1 6 dl2] LC8 DL} def
/SL {[] 0 setdash} def
/Pnt {stroke [] 0 setdash gsave 1 setlinecap M 0 0 V stroke grestore} def
/Dia {stroke [] 0 setdash 2 copy vpt add M
  hpt neg vpt neg V hpt vpt neg V
  hpt vpt V hpt neg vpt V closepath stroke
  Pnt} def
/Pls {stroke [] 0 setdash vpt sub M 0 vpt2 V
  currentpoint stroke M
  hpt neg vpt neg R hpt2 0 V stroke
 } def
/Box {stroke [] 0 setdash 2 copy exch hpt sub exch vpt add M
  0 vpt2 neg V hpt2 0 V 0 vpt2 V
  hpt2 neg 0 V closepath stroke
  Pnt} def
/Crs {stroke [] 0 setdash exch hpt sub exch vpt add M
  hpt2 vpt2 neg V currentpoint stroke M
  hpt2 neg 0 R hpt2 vpt2 V stroke} def
/TriU {stroke [] 0 setdash 2 copy vpt 1.12 mul add M
  hpt neg vpt -1.62 mul V
  hpt 2 mul 0 V
  hpt neg vpt 1.62 mul V closepath stroke
  Pnt} def
/Star {2 copy Pls Crs} def
/BoxF {stroke [] 0 setdash exch hpt sub exch vpt add M
  0 vpt2 neg V hpt2 0 V 0 vpt2 V
  hpt2 neg 0 V closepath fill} def
/TriUF {stroke [] 0 setdash vpt 1.12 mul add M
  hpt neg vpt -1.62 mul V
  hpt 2 mul 0 V
  hpt neg vpt 1.62 mul V closepath fill} def
/TriD {stroke [] 0 setdash 2 copy vpt 1.12 mul sub M
  hpt neg vpt 1.62 mul V
  hpt 2 mul 0 V
  hpt neg vpt -1.62 mul V closepath stroke
  Pnt} def
/TriDF {stroke [] 0 setdash vpt 1.12 mul sub M
  hpt neg vpt 1.62 mul V
  hpt 2 mul 0 V
  hpt neg vpt -1.62 mul V closepath fill} def
/DiaF {stroke [] 0 setdash vpt add M
  hpt neg vpt neg V hpt vpt neg V
  hpt vpt V hpt neg vpt V closepath fill} def
/Pent {stroke [] 0 setdash 2 copy gsave
  translate 0 hpt M 4 {72 rotate 0 hpt L} repeat
  closepath stroke grestore Pnt} def
/PentF {stroke [] 0 setdash gsave
  translate 0 hpt M 4 {72 rotate 0 hpt L} repeat
  closepath fill grestore} def
/Circle {stroke [] 0 setdash 2 copy
  hpt 0 360 arc stroke Pnt} def
/CircleF {stroke [] 0 setdash hpt 0 360 arc fill} def
/C0 {BL [] 0 setdash 2 copy moveto vpt 90 450 arc} bind def
/C1 {BL [] 0 setdash 2 copy moveto
	2 copy vpt 0 90 arc closepath fill
	vpt 0 360 arc closepath} bind def
/C2 {BL [] 0 setdash 2 copy moveto
	2 copy vpt 90 180 arc closepath fill
	vpt 0 360 arc closepath} bind def
/C3 {BL [] 0 setdash 2 copy moveto
	2 copy vpt 0 180 arc closepath fill
	vpt 0 360 arc closepath} bind def
/C4 {BL [] 0 setdash 2 copy moveto
	2 copy vpt 180 270 arc closepath fill
	vpt 0 360 arc closepath} bind def
/C5 {BL [] 0 setdash 2 copy moveto
	2 copy vpt 0 90 arc
	2 copy moveto
	2 copy vpt 180 270 arc closepath fill
	vpt 0 360 arc} bind def
/C6 {BL [] 0 setdash 2 copy moveto
	2 copy vpt 90 270 arc closepath fill
	vpt 0 360 arc closepath} bind def
/C7 {BL [] 0 setdash 2 copy moveto
	2 copy vpt 0 270 arc closepath fill
	vpt 0 360 arc closepath} bind def
/C8 {BL [] 0 setdash 2 copy moveto
	2 copy vpt 270 360 arc closepath fill
	vpt 0 360 arc closepath} bind def
/C9 {BL [] 0 setdash 2 copy moveto
	2 copy vpt 270 450 arc closepath fill
	vpt 0 360 arc closepath} bind def
/C10 {BL [] 0 setdash 2 copy 2 copy moveto vpt 270 360 arc closepath fill
	2 copy moveto
	2 copy vpt 90 180 arc closepath fill
	vpt 0 360 arc closepath} bind def
/C11 {BL [] 0 setdash 2 copy moveto
	2 copy vpt 0 180 arc closepath fill
	2 copy moveto
	2 copy vpt 270 360 arc closepath fill
	vpt 0 360 arc closepath} bind def
/C12 {BL [] 0 setdash 2 copy moveto
	2 copy vpt 180 360 arc closepath fill
	vpt 0 360 arc closepath} bind def
/C13 {BL [] 0 setdash 2 copy moveto
	2 copy vpt 0 90 arc closepath fill
	2 copy moveto
	2 copy vpt 180 360 arc closepath fill
	vpt 0 360 arc closepath} bind def
/C14 {BL [] 0 setdash 2 copy moveto
	2 copy vpt 90 360 arc closepath fill
	vpt 0 360 arc} bind def
/C15 {BL [] 0 setdash 2 copy vpt 0 360 arc closepath fill
	vpt 0 360 arc closepath} bind def
/Rec {newpath 4 2 roll moveto 1 index 0 rlineto 0 exch rlineto
	neg 0 rlineto closepath} bind def
/Square {dup Rec} bind def
/Bsquare {vpt sub exch vpt sub exch vpt2 Square} bind def
/S0 {BL [] 0 setdash 2 copy moveto 0 vpt rlineto BL Bsquare} bind def
/S1 {BL [] 0 setdash 2 copy vpt Square fill Bsquare} bind def
/S2 {BL [] 0 setdash 2 copy exch vpt sub exch vpt Square fill Bsquare} bind def
/S3 {BL [] 0 setdash 2 copy exch vpt sub exch vpt2 vpt Rec fill Bsquare} bind def
/S4 {BL [] 0 setdash 2 copy exch vpt sub exch vpt sub vpt Square fill Bsquare} bind def
/S5 {BL [] 0 setdash 2 copy 2 copy vpt Square fill
	exch vpt sub exch vpt sub vpt Square fill Bsquare} bind def
/S6 {BL [] 0 setdash 2 copy exch vpt sub exch vpt sub vpt vpt2 Rec fill Bsquare} bind def
/S7 {BL [] 0 setdash 2 copy exch vpt sub exch vpt sub vpt vpt2 Rec fill
	2 copy vpt Square fill Bsquare} bind def
/S8 {BL [] 0 setdash 2 copy vpt sub vpt Square fill Bsquare} bind def
/S9 {BL [] 0 setdash 2 copy vpt sub vpt vpt2 Rec fill Bsquare} bind def
/S10 {BL [] 0 setdash 2 copy vpt sub vpt Square fill 2 copy exch vpt sub exch vpt Square fill
	Bsquare} bind def
/S11 {BL [] 0 setdash 2 copy vpt sub vpt Square fill 2 copy exch vpt sub exch vpt2 vpt Rec fill
	Bsquare} bind def
/S12 {BL [] 0 setdash 2 copy exch vpt sub exch vpt sub vpt2 vpt Rec fill Bsquare} bind def
/S13 {BL [] 0 setdash 2 copy exch vpt sub exch vpt sub vpt2 vpt Rec fill
	2 copy vpt Square fill Bsquare} bind def
/S14 {BL [] 0 setdash 2 copy exch vpt sub exch vpt sub vpt2 vpt Rec fill
	2 copy exch vpt sub exch vpt Square fill Bsquare} bind def
/S15 {BL [] 0 setdash 2 copy Bsquare fill Bsquare} bind def
/D0 {gsave translate 45 rotate 0 0 S0 stroke grestore} bind def
/D1 {gsave translate 45 rotate 0 0 S1 stroke grestore} bind def
/D2 {gsave translate 45 rotate 0 0 S2 stroke grestore} bind def
/D3 {gsave translate 45 rotate 0 0 S3 stroke grestore} bind def
/D4 {gsave translate 45 rotate 0 0 S4 stroke grestore} bind def
/D5 {gsave translate 45 rotate 0 0 S5 stroke grestore} bind def
/D6 {gsave translate 45 rotate 0 0 S6 stroke grestore} bind def
/D7 {gsave translate 45 rotate 0 0 S7 stroke grestore} bind def
/D8 {gsave translate 45 rotate 0 0 S8 stroke grestore} bind def
/D9 {gsave translate 45 rotate 0 0 S9 stroke grestore} bind def
/D10 {gsave translate 45 rotate 0 0 S10 stroke grestore} bind def
/D11 {gsave translate 45 rotate 0 0 S11 stroke grestore} bind def
/D12 {gsave translate 45 rotate 0 0 S12 stroke grestore} bind def
/D13 {gsave translate 45 rotate 0 0 S13 stroke grestore} bind def
/D14 {gsave translate 45 rotate 0 0 S14 stroke grestore} bind def
/D15 {gsave translate 45 rotate 0 0 S15 stroke grestore} bind def
/DiaE {stroke [] 0 setdash vpt add M
  hpt neg vpt neg V hpt vpt neg V
  hpt vpt V hpt neg vpt V closepath stroke} def
/BoxE {stroke [] 0 setdash exch hpt sub exch vpt add M
  0 vpt2 neg V hpt2 0 V 0 vpt2 V
  hpt2 neg 0 V closepath stroke} def
/TriUE {stroke [] 0 setdash vpt 1.12 mul add M
  hpt neg vpt -1.62 mul V
  hpt 2 mul 0 V
  hpt neg vpt 1.62 mul V closepath stroke} def
/TriDE {stroke [] 0 setdash vpt 1.12 mul sub M
  hpt neg vpt 1.62 mul V
  hpt 2 mul 0 V
  hpt neg vpt -1.62 mul V closepath stroke} def
/PentE {stroke [] 0 setdash gsave
  translate 0 hpt M 4 {72 rotate 0 hpt L} repeat
  closepath stroke grestore} def
/CircE {stroke [] 0 setdash 
  hpt 0 360 arc stroke} def
/Opaque {gsave closepath 1 setgray fill grestore 0 setgray closepath} def
/DiaW {stroke [] 0 setdash vpt add M
  hpt neg vpt neg V hpt vpt neg V
  hpt vpt V hpt neg vpt V Opaque stroke} def
/BoxW {stroke [] 0 setdash exch hpt sub exch vpt add M
  0 vpt2 neg V hpt2 0 V 0 vpt2 V
  hpt2 neg 0 V Opaque stroke} def
/TriUW {stroke [] 0 setdash vpt 1.12 mul add M
  hpt neg vpt -1.62 mul V
  hpt 2 mul 0 V
  hpt neg vpt 1.62 mul V Opaque stroke} def
/TriDW {stroke [] 0 setdash vpt 1.12 mul sub M
  hpt neg vpt 1.62 mul V
  hpt 2 mul 0 V
  hpt neg vpt -1.62 mul V Opaque stroke} def
/PentW {stroke [] 0 setdash gsave
  translate 0 hpt M 4 {72 rotate 0 hpt L} repeat
  Opaque stroke grestore} def
/CircW {stroke [] 0 setdash 
  hpt 0 360 arc Opaque stroke} def
/BoxFill {gsave Rec 1 setgray fill grestore} def
/Density {
  /Fillden exch def
  currentrgbcolor
  /ColB exch def /ColG exch def /ColR exch def
  /ColR ColR Fillden mul Fillden sub 1 add def
  /ColG ColG Fillden mul Fillden sub 1 add def
  /ColB ColB Fillden mul Fillden sub 1 add def
  ColR ColG ColB setrgbcolor} def
/BoxColFill {gsave Rec PolyFill} def
/PolyFill {gsave Density fill grestore grestore} def
/h {rlineto rlineto rlineto gsave closepath fill grestore} bind def
%
% PostScript Level 1 Pattern Fill routine for rectangles
% Usage: x y w h s a XX PatternFill
%	x,y = lower left corner of box to be filled
%	w,h = width and height of box
%	  a = angle in degrees between lines and x-axis
%	 XX = 0/1 for no/yes cross-hatch
%
/PatternFill {gsave /PFa [ 9 2 roll ] def
  PFa 0 get PFa 2 get 2 div add PFa 1 get PFa 3 get 2 div add translate
  PFa 2 get -2 div PFa 3 get -2 div PFa 2 get PFa 3 get Rec
  TransparentPatterns {} {gsave 1 setgray fill grestore} ifelse
  clip
  currentlinewidth 0.5 mul setlinewidth
  /PFs PFa 2 get dup mul PFa 3 get dup mul add sqrt def
  0 0 M PFa 5 get rotate PFs -2 div dup translate
  0 1 PFs PFa 4 get div 1 add floor cvi
	{PFa 4 get mul 0 M 0 PFs V} for
  0 PFa 6 get ne {
	0 1 PFs PFa 4 get div 1 add floor cvi
	{PFa 4 get mul 0 2 1 roll M PFs 0 V} for
 } if
  stroke grestore} def
%
/languagelevel where
 {pop languagelevel} {1} ifelse
dup 2 lt
	{/InterpretLevel1 true def
	 /InterpretLevel3 false def}
	{/InterpretLevel1 Level1 def
	 2 gt
	    {/InterpretLevel3 Level3 def}
	    {/InterpretLevel3 false def}
	 ifelse }
 ifelse
%
% PostScript level 2 pattern fill definitions
%
/Level2PatternFill {
/Tile8x8 {/PaintType 2 /PatternType 1 /TilingType 1 /BBox [0 0 8 8] /XStep 8 /YStep 8}
	bind def
/KeepColor {currentrgbcolor [/Pattern /DeviceRGB] setcolorspace} bind def
<< Tile8x8
 /PaintProc {0.5 setlinewidth pop 0 0 M 8 8 L 0 8 M 8 0 L stroke} 
>> matrix makepattern
/Pat1 exch def
<< Tile8x8
 /PaintProc {0.5 setlinewidth pop 0 0 M 8 8 L 0 8 M 8 0 L stroke
	0 4 M 4 8 L 8 4 L 4 0 L 0 4 L stroke}
>> matrix makepattern
/Pat2 exch def
<< Tile8x8
 /PaintProc {0.5 setlinewidth pop 0 0 M 0 8 L
	8 8 L 8 0 L 0 0 L fill}
>> matrix makepattern
/Pat3 exch def
<< Tile8x8
 /PaintProc {0.5 setlinewidth pop -4 8 M 8 -4 L
	0 12 M 12 0 L stroke}
>> matrix makepattern
/Pat4 exch def
<< Tile8x8
 /PaintProc {0.5 setlinewidth pop -4 0 M 8 12 L
	0 -4 M 12 8 L stroke}
>> matrix makepattern
/Pat5 exch def
<< Tile8x8
 /PaintProc {0.5 setlinewidth pop -2 8 M 4 -4 L
	0 12 M 8 -4 L 4 12 M 10 0 L stroke}
>> matrix makepattern
/Pat6 exch def
<< Tile8x8
 /PaintProc {0.5 setlinewidth pop -2 0 M 4 12 L
	0 -4 M 8 12 L 4 -4 M 10 8 L stroke}
>> matrix makepattern
/Pat7 exch def
<< Tile8x8
 /PaintProc {0.5 setlinewidth pop 8 -2 M -4 4 L
	12 0 M -4 8 L 12 4 M 0 10 L stroke}
>> matrix makepattern
/Pat8 exch def
<< Tile8x8
 /PaintProc {0.5 setlinewidth pop 0 -2 M 12 4 L
	-4 0 M 12 8 L -4 4 M 8 10 L stroke}
>> matrix makepattern
/Pat9 exch def
/Pattern1 {PatternBgnd KeepColor Pat1 setpattern} bind def
/Pattern2 {PatternBgnd KeepColor Pat2 setpattern} bind def
/Pattern3 {PatternBgnd KeepColor Pat3 setpattern} bind def
/Pattern4 {PatternBgnd KeepColor Landscape {Pat5} {Pat4} ifelse setpattern} bind def
/Pattern5 {PatternBgnd KeepColor Landscape {Pat4} {Pat5} ifelse setpattern} bind def
/Pattern6 {PatternBgnd KeepColor Landscape {Pat9} {Pat6} ifelse setpattern} bind def
/Pattern7 {PatternBgnd KeepColor Landscape {Pat8} {Pat7} ifelse setpattern} bind def
} def
%
%
%End of PostScript Level 2 code
%
/PatternBgnd {
  TransparentPatterns {} {gsave 1 setgray fill grestore} ifelse
} def
%
% Substitute for Level 2 pattern fill codes with
% grayscale if Level 2 support is not selected.
%
/Level1PatternFill {
/Pattern1 {0.250 Density} bind def
/Pattern2 {0.500 Density} bind def
/Pattern3 {0.750 Density} bind def
/Pattern4 {0.125 Density} bind def
/Pattern5 {0.375 Density} bind def
/Pattern6 {0.625 Density} bind def
/Pattern7 {0.875 Density} bind def
} def
%
% Now test for support of Level 2 code
%
Level1 {Level1PatternFill} {Level2PatternFill} ifelse
%
/Symbol-Oblique /Symbol findfont [1 0 .167 1 0 0] makefont
dup length dict begin {1 index /FID eq {pop pop} {def} ifelse} forall
currentdict end definefont pop
%
/MFshow {
   { dup 5 get 3 ge
     { 5 get 3 eq {gsave} {grestore} ifelse }
     {dup dup 0 get findfont exch 1 get scalefont setfont
     [ currentpoint ] exch dup 2 get 0 exch R dup 5 get 2 ne {dup dup 6
     get exch 4 get {textshow} {stringwidth pop 0 R} ifelse }if dup 5 get 0 eq
     {dup 3 get {2 get neg 0 exch R pop} {pop aload pop M} ifelse} {dup 5
     get 1 eq {dup 2 get exch dup 3 get exch 6 get stringwidth pop -2 div
     dup 0 R} {dup 6 get stringwidth pop -2 div 0 R 6 get
     textshow 2 index {aload pop M neg 3 -1 roll neg R pop pop} {pop pop pop
     pop aload pop M} ifelse }ifelse }ifelse }
     ifelse }
   forall} def
/Gswidth {dup type /stringtype eq {stringwidth} {pop (n) stringwidth} ifelse} def
/MFwidth {0 exch { dup 5 get 3 ge { 5 get 3 eq { 0 } { pop } ifelse }
 {dup 3 get{dup dup 0 get findfont exch 1 get scalefont setfont
     6 get Gswidth pop add} {pop} ifelse} ifelse} forall} def
/MLshow { currentpoint stroke M
  0 exch R
  Blacktext {gsave 0 setgray MFshow grestore} {MFshow} ifelse } bind def
/MRshow { currentpoint stroke M
  exch dup MFwidth neg 3 -1 roll R
  Blacktext {gsave 0 setgray MFshow grestore} {MFshow} ifelse } bind def
/MCshow { currentpoint stroke M
  exch dup MFwidth -2 div 3 -1 roll R
  Blacktext {gsave 0 setgray MFshow grestore} {MFshow} ifelse } bind def
/XYsave    { [( ) 1 2 true false 3 ()] } bind def
/XYrestore { [( ) 1 2 true false 4 ()] } bind def
Level1 SuppressPDFMark or 
{} {
/SDict 10 dict def
systemdict /pdfmark known not {
  userdict /pdfmark systemdict /cleartomark get put
} if
SDict begin [
  /Title (nb-nthr-time-nm-dgemm-kilburn.eps)
  /Subject (gnuplot plot)
  /Creator (gnuplot 5.0 patchlevel 6)
  /Author (mabalenk)
%  /Producer (gnuplot)
%  /Keywords ()
  /CreationDate (Mon Jul 24 13:43:51 2017)
  /DOCINFO pdfmark
end
} ifelse
%
% Support for boxed text - Ethan A Merritt May 2005
%
/InitTextBox { userdict /TBy2 3 -1 roll put userdict /TBx2 3 -1 roll put
           userdict /TBy1 3 -1 roll put userdict /TBx1 3 -1 roll put
	   /Boxing true def } def
/ExtendTextBox { Boxing
    { gsave dup false charpath pathbbox
      dup TBy2 gt {userdict /TBy2 3 -1 roll put} {pop} ifelse
      dup TBx2 gt {userdict /TBx2 3 -1 roll put} {pop} ifelse
      dup TBy1 lt {userdict /TBy1 3 -1 roll put} {pop} ifelse
      dup TBx1 lt {userdict /TBx1 3 -1 roll put} {pop} ifelse
      grestore } if } def
/PopTextBox { newpath TBx1 TBxmargin sub TBy1 TBymargin sub M
               TBx1 TBxmargin sub TBy2 TBymargin add L
	       TBx2 TBxmargin add TBy2 TBymargin add L
	       TBx2 TBxmargin add TBy1 TBymargin sub L closepath } def
/DrawTextBox { PopTextBox stroke /Boxing false def} def
/FillTextBox { gsave PopTextBox 1 1 1 setrgbcolor fill grestore /Boxing false def} def
0 0 0 0 InitTextBox
/TBxmargin 20 def
/TBymargin 20 def
/Boxing false def
/textshow { ExtendTextBox Gshow } def
%
% redundant definitions for compatibility with prologue.ps older than 5.0.2
/LTB {BL [] LCb DL} def
/LTb {PL [] LCb DL} def
end
%%EndProlog
%%Page: 1 1
gnudict begin
gsave
doclip
50 50 translate
0.050 0.050 scale
0 setgray
newpath
(Helvetica) findfont 220 scalefont setfont
BackgroundColor 0 lt 3 1 roll 0 lt exch 0 lt or or not {BackgroundColor C 1.000 0 0 7200.00 5040.00 BoxColFill} if
gsave % colour palette begin
/maxcolors 0 def
/HSV2RGB {  exch dup 0.0 eq {pop exch pop dup dup} % achromatic gray
  { /HSVs exch def /HSVv exch def 6.0 mul dup floor dup 3 1 roll sub
     /HSVf exch def /HSVi exch cvi def /HSVp HSVv 1.0 HSVs sub mul def
	 /HSVq HSVv 1.0 HSVs HSVf mul sub mul def 
	 /HSVt HSVv 1.0 HSVs 1.0 HSVf sub mul sub mul def
	 /HSVi HSVi 6 mod def 0 HSVi eq {HSVv HSVt HSVp}
	 {1 HSVi eq {HSVq HSVv HSVp}{2 HSVi eq {HSVp HSVv HSVt}
	 {3 HSVi eq {HSVp HSVq HSVv}{4 HSVi eq {HSVt HSVp HSVv}
	 {HSVv HSVp HSVq} ifelse} ifelse} ifelse} ifelse} ifelse
  } ifelse} def
/Constrain {
  dup 0 lt {0 exch pop}{dup 1 gt {1 exch pop} if} ifelse} def
/YIQ2RGB {
  3 copy -1.702 mul exch -1.105 mul add add Constrain 4 1 roll
  3 copy -0.647 mul exch -0.272 mul add add Constrain 5 1 roll
  0.621 mul exch -0.956 mul add add Constrain 3 1 roll } def
/CMY2RGB {  1 exch sub exch 1 exch sub 3 2 roll 1 exch sub 3 1 roll exch } def
/XYZ2RGB {  3 copy -0.9017 mul exch -0.1187 mul add exch 0.0585 mul exch add
  Constrain 4 1 roll 3 copy -0.0279 mul exch 1.999 mul add exch
  -0.9844 mul add Constrain 5 1 roll -0.2891 mul exch -0.5338 mul add
  exch 1.91 mul exch add Constrain 3 1 roll} def
/SelectSpace {ColorSpace (HSV) eq {HSV2RGB}{ColorSpace (XYZ) eq {
  XYZ2RGB}{ColorSpace (CMY) eq {CMY2RGB}{ColorSpace (YIQ) eq {YIQ2RGB}
  if} ifelse} ifelse} ifelse} def
/InterpolatedColor false def
/cF7 {sqrt} bind def	% sqrt(x)
/cF5 {dup dup mul mul} bind def	% x^3
/cF15 {360 mul sin} bind def	% sin(360x)
/pm3dround {maxcolors 0 gt {dup 1 ge
	{pop 1} {maxcolors mul floor maxcolors 1 sub div} ifelse} if} def
/pm3dGamma 1.0 1.5 Gamma mul div def
/ColorSpace (RGB) def
Color InterpolatedColor or { % COLOUR vs. GRAY map
  InterpolatedColor { %% Interpolation vs. RGB-Formula
    /g {stroke pm3dround /grayv exch def interpolate
        SelectSpace setrgbcolor} bind def
  }{
  /g {stroke pm3dround dup cF7 Constrain exch dup cF5 Constrain exch cF15 Constrain 
       SelectSpace setrgbcolor} bind def
  } ifelse
}{
  /g {stroke pm3dround pm3dGamma exp setgray} bind def
} ifelse
1.000 UL
LTb
LCb setrgbcolor
LCb setrgbcolor
3700 4533 M
[ [(Helvetica) 220.0 0.0 true true 0 (DGEMM, Nelder-Mead \(nb, nthr\) @ Kilburn)]
] -73.3 MCshow
1.000 UP
% Begin plot #1
5.000 UL
LTb
0.58 0.00 0.83 C 3476 3200 M
95 48 V
stroke
LTb
0.58 0.00 0.83 C 3747 3165 M
-176 83 V
stroke
LTb
0.58 0.00 0.83 C 3395 3376 M
176 -128 V
stroke
LTb
0.58 0.00 0.83 C 3300 3329 M
95 47 V
stroke
LTb
0.58 0.00 0.83 C 3219 3696 M
176 -320 V
stroke
LTb
0.58 0.00 0.83 C 3652 3116 M
95 49 V
stroke
LTb
0.58 0.00 0.83 C 3923 3110 M
-176 55 V
stroke
LTb
0.58 0.00 0.83 C 3827 3062 M
96 48 V
stroke
LTb
0.58 0.00 0.83 C 4099 3070 M
-176 40 V
stroke
LTb
0.58 0.00 0.83 C 3381 3152 M
95 48 V
stroke
LTb
0.58 0.00 0.83 C 3652 3116 M
-176 84 V
stroke
LTb
0.58 0.00 0.83 C 3300 3329 M
176 -129 V
stroke
LTb
0.58 0.00 0.83 C 3204 3282 M
96 47 V
stroke
LTb
0.58 0.00 0.83 C 3123 3657 M
177 -328 V
stroke
LTb
0.58 0.00 0.83 C 4004 3021 M
95 49 V
stroke
LTb
0.58 0.00 0.83 C 4275 3032 M
-176 38 V
stroke
LTb
0.58 0.00 0.83 C 3557 3068 M
95 48 V
stroke
LTb
0.58 0.00 0.83 C 3827 3062 M
-175 54 V
stroke
LTb
0.58 0.00 0.83 C 3123 3657 M
96 39 V
stroke
LTb
0.58 0.00 0.83 C 3732 3013 M
95 49 V
stroke
LTb
0.58 0.00 0.83 C 4004 3021 M
-177 41 V
stroke
LTb
0.58 0.00 0.83 C 4180 2983 M
95 49 V
stroke
LTb
0.58 0.00 0.83 C 4452 3002 M
-177 30 V
stroke
LTb
0.58 0.00 0.83 C 3285 3104 M
96 48 V
stroke
LTb
0.58 0.00 0.83 C 3557 3068 M
-176 84 V
stroke
LTb
0.58 0.00 0.83 C 3204 3282 M
177 -130 V
stroke
LTb
0.58 0.00 0.83 C 3109 3236 M
95 46 V
stroke
LTb
0.58 0.00 0.83 C 3028 3619 M
176 -337 V
stroke
LTb
0.58 0.00 0.83 C 3908 2973 M
96 48 V
stroke
LTb
0.58 0.00 0.83 C 4180 2983 M
-176 38 V
stroke
LTb
0.58 0.00 0.83 C 3461 3019 M
96 49 V
stroke
LTb
0.58 0.00 0.83 C 3732 3013 M
-175 55 V
stroke
LTb
0.58 0.00 0.83 C 4356 2953 M
96 49 V
stroke
LTb
0.58 0.00 0.83 C 4628 2973 M
-176 29 V
stroke
LTb
0.58 0.00 0.83 C 3028 3619 M
95 38 V
stroke
LTb
0.58 0.00 0.83 C 3638 2964 M
94 49 V
stroke
LTb
0.58 0.00 0.83 C 3908 2973 M
-176 40 V
stroke
LTb
0.00 0.62 0.45 C 1560 2555 M
2 1 V
stroke
LTb
0.58 0.00 0.83 C 4085 2934 M
95 49 V
stroke
LTb
0.58 0.00 0.83 C 4356 2953 M
-176 30 V
stroke
LTb
0.58 0.00 0.83 C 3190 3056 M
95 48 V
stroke
LTb
0.58 0.00 0.83 C 3461 3019 M
-176 85 V
stroke
LTb
0.58 0.00 0.83 C 3109 3236 M
176 -132 V
stroke
LTb
0.58 0.00 0.83 C 4532 2924 M
96 49 V
stroke
LTb
0.58 0.00 0.83 C 4804 2940 M
-176 33 V
stroke
LTb
0.58 0.00 0.83 C 3013 3189 M
96 47 V
stroke
LTb
0.58 0.00 0.83 C 2933 3581 M
176 -345 V
stroke
LTb
0.58 0.00 0.83 C 3813 2924 M
95 49 V
stroke
LTb
0.58 0.00 0.83 C 4085 2934 M
-177 39 V
stroke
LTb
0.58 0.00 0.83 C 3366 2970 M
95 49 V
stroke
LTb
0.58 0.00 0.83 C 3638 2964 M
-177 55 V
stroke
LTb
0.58 0.00 0.83 C 4261 2905 M
95 48 V
stroke
LTb
0.58 0.00 0.83 C 4532 2924 M
-176 29 V
stroke
LTb
0.58 0.00 0.83 C 2933 3581 M
95 38 V
stroke
LTb
0.58 0.00 0.83 C 4709 2892 M
95 48 V
stroke
LTb
0.58 0.00 0.83 C 4980 2909 M
-176 31 V
stroke
LTb
0.00 0.62 0.45 C 1465 2495 M
95 60 V
stroke
LTb
0.00 0.62 0.45 C 1562 2557 M
-2 -2 V
stroke
LTb
0.58 0.00 0.83 C 3542 2915 M
96 49 V
stroke
LTb
0.58 0.00 0.83 C 3813 2924 M
-175 40 V
stroke
LTb
0.58 0.00 0.83 C 3989 2885 M
96 49 V
stroke
LTb
0.58 0.00 0.83 C 4261 2905 M
-176 29 V
stroke
LTb
0.58 0.00 0.83 C 3094 3008 M
96 48 V
stroke
LTb
0.58 0.00 0.83 C 3366 2970 M
-176 86 V
stroke
LTb
0.58 0.00 0.83 C 3013 3189 M
177 -133 V
stroke
LTb
0.58 0.00 0.83 C 4437 2876 M
95 48 V
stroke
LTb
0.58 0.00 0.83 C 4709 2892 M
-177 32 V
stroke
LTb
0.58 0.00 0.83 C 2918 3142 M
95 47 V
stroke
LTb
0.58 0.00 0.83 C 2837 3544 M
176 -355 V
stroke
LTb
0.58 0.00 0.83 C 3717 2875 M
96 49 V
stroke
LTb
0.58 0.00 0.83 C 3989 2885 M
-176 39 V
stroke
LTb
0.58 0.00 0.83 C 4885 2861 M
95 48 V
stroke
LTb
0.58 0.00 0.83 C 5157 2883 M
-177 26 V
stroke
LTb
0.58 0.00 0.83 C 3271 2921 M
95 49 V
stroke
LTb
0.58 0.00 0.83 C 3542 2915 M
-176 55 V
stroke
LTb
0.58 0.00 0.83 C 4165 2856 M
96 49 V
stroke
LTb
0.58 0.00 0.83 C 4437 2876 M
-176 29 V
stroke
LTb
0.00 0.62 0.45 C 1369 2436 M
96 59 V
stroke
LTb
0.00 0.62 0.45 C 1542 2616 M
-77 -121 V
stroke
LTb
0.58 0.00 0.83 C 4613 2843 M
96 49 V
stroke
LTb
0.58 0.00 0.83 C 4885 2861 M
-176 31 V
stroke
LTb
0.58 0.00 0.83 C 2837 3544 M
96 37 V
stroke
LTb
0.58 0.00 0.83 C 3447 2866 M
95 49 V
stroke
LTb
0.58 0.00 0.83 C 3717 2875 M
-175 40 V
stroke
LTb
0.58 0.00 0.83 C 3894 2836 M
95 49 V
stroke
LTb
0.58 0.00 0.83 C 4165 2856 M
-176 29 V
stroke
LTb
0.58 0.00 0.83 C 5061 2834 M
96 49 V
stroke
LTb
0.58 0.00 0.83 C 5333 2857 M
-176 26 V
stroke
LTb
0.58 0.00 0.83 C 2999 2960 M
95 48 V
stroke
LTb
0.58 0.00 0.83 C 3271 2921 M
-177 87 V
stroke
LTb
0.58 0.00 0.83 C 2918 3142 M
176 -134 V
stroke
LTb
0.58 0.00 0.83 C 4342 2827 M
95 49 V
stroke
LTb
0.58 0.00 0.83 C 4613 2843 M
-176 33 V
stroke
LTb
0.58 0.00 0.83 C 2823 3096 M
95 46 V
stroke
LTb
0.58 0.00 0.83 C 2742 3507 M
176 -365 V
stroke
LTb
0.58 0.00 0.83 C 3623 2826 M
94 49 V
stroke
LTb
0.58 0.00 0.83 C 3894 2836 M
-177 39 V
stroke
LTb
0.58 0.00 0.83 C 4789 2812 M
96 49 V
stroke
LTb
0.58 0.00 0.83 C 5061 2834 M
-176 27 V
stroke
LTb
0.58 0.00 0.83 C 3175 2873 M
96 48 V
stroke
LTb
0.58 0.00 0.83 C 3447 2866 M
-176 55 V
stroke
LTb
0.58 0.00 0.83 C 4070 2807 M
95 49 V
stroke
LTb
0.58 0.00 0.83 C 4342 2827 M
-177 29 V
stroke
LTb
0.00 0.62 0.45 C 1274 2376 M
95 60 V
stroke
LTb
0.00 0.62 0.45 C 1520 2680 M
1369 2436 L
stroke
LTb
0.58 0.00 0.83 C 5237 2809 M
96 48 V
stroke
LTb
0.58 0.00 0.83 C 5509 2829 M
-176 28 V
stroke
LTb
0.58 0.00 0.83 C 4518 2794 M
95 49 V
stroke
LTb
0.58 0.00 0.83 C 4789 2812 M
-176 31 V
stroke
LTb
0.58 0.00 0.83 C 3351 2818 M
96 48 V
stroke
LTb
0.58 0.00 0.83 C 3623 2826 M
-176 40 V
stroke
LTb
0.58 0.00 0.83 C 2742 3507 M
95 37 V
stroke
LTb
0.58 0.00 0.83 C 3798 2787 M
96 49 V
stroke
LTb
0.58 0.00 0.83 C 4070 2807 M
-176 29 V
stroke
LTb
0.58 0.00 0.83 C 4966 2786 M
95 48 V
stroke
LTb
0.58 0.00 0.83 C 5237 2809 M
-176 25 V
stroke
LTb
0.58 0.00 0.83 C 2904 2912 M
95 48 V
stroke
LTb
0.58 0.00 0.83 C 3175 2873 M
-176 87 V
stroke
LTb
0.58 0.00 0.83 C 2823 3096 M
176 -136 V
stroke
LTb
0.58 0.00 0.83 C 4246 2779 M
96 48 V
stroke
LTb
0.58 0.00 0.83 C 4518 2794 M
-176 33 V
stroke
LTb
0.58 0.00 0.83 C 2727 3050 M
96 46 V
stroke
LTb
0.58 0.00 0.83 C 2646 3471 M
177 -375 V
stroke
LTb
0.58 0.00 0.83 C 5414 2781 M
95 48 V
stroke
LTb
0.58 0.00 0.83 C 5685 2798 M
-176 31 V
stroke
LTb
0.58 0.00 0.83 C 3528 2777 M
95 49 V
stroke
LTb
0.58 0.00 0.83 C 3798 2787 M
-175 39 V
stroke
LTb
0.58 0.00 0.83 C 4694 2763 M
95 49 V
stroke
LTb
0.58 0.00 0.83 C 4966 2786 M
-177 26 V
stroke
LTb
0.58 0.00 0.83 C 3080 2824 M
95 49 V
stroke
LTb
0.58 0.00 0.83 C 3351 2818 M
-176 55 V
stroke
LTb
0.00 0.62 0.45 C 1178 2315 M
96 61 V
stroke
LTb
0.00 0.62 0.45 C 1450 2672 M
1274 2376 L
stroke
LTb
0.58 0.00 0.83 C 3975 2759 M
95 48 V
stroke
LTb
0.58 0.00 0.83 C 4246 2779 M
-176 28 V
stroke
LTb
0.58 0.00 0.83 C 5142 2760 M
95 49 V
stroke
LTb
0.58 0.00 0.83 C 5414 2781 M
-177 28 V
stroke
LTb
0.58 0.00 0.83 C 4422 2746 M
96 48 V
stroke
LTb
0.58 0.00 0.83 C 4694 2763 M
-176 31 V
stroke
LTb
0.58 0.00 0.83 C 3256 2769 M
95 49 V
stroke
LTb
0.58 0.00 0.83 C 3528 2777 M
-177 41 V
stroke
LTb
0.58 0.00 0.83 C 5590 2749 M
95 49 V
stroke
LTb
0.58 0.00 0.83 C 5861 2747 M
-176 51 V
stroke
LTb
0.58 0.00 0.83 C 3703 2738 M
95 49 V
stroke
LTb
0.58 0.00 0.83 C 3975 2759 M
-177 28 V
stroke
LTb
0.58 0.00 0.83 C 2646 3471 M
96 36 V
stroke
LTb
0.58 0.00 0.83 C 4870 2737 M
96 49 V
stroke
LTb
0.58 0.00 0.83 C 5142 2760 M
-176 26 V
stroke
LTb
0.58 0.00 0.83 C 2808 2864 M
96 48 V
stroke
LTb
0.58 0.00 0.83 C 3080 2824 M
-176 88 V
stroke
LTb
0.58 0.00 0.83 C 2727 3050 M
177 -138 V
stroke
LTb
0.58 0.00 0.83 C 4151 2730 M
95 49 V
stroke
LTb
0.58 0.00 0.83 C 4422 2746 M
-176 33 V
stroke
LTb
0.58 0.00 0.83 C 2632 3003 M
95 47 V
stroke
LTb
0.58 0.00 0.83 C 2551 3435 M
176 -385 V
stroke
LTb
0.58 0.00 0.83 C 5318 2733 M
96 48 V
stroke
LTb
0.58 0.00 0.83 C 5590 2749 M
-176 32 V
stroke
LTb
0.58 0.00 0.83 C 3432 2728 M
96 49 V
stroke
LTb
0.58 0.00 0.83 C 3703 2738 M
-175 39 V
stroke
LTb
0.58 0.00 0.83 C 5766 2700 M
95 47 V
stroke
LTb
0.58 0.00 0.83 C 4599 2715 M
95 48 V
stroke
LTb
0.58 0.00 0.83 C 4870 2737 M
-176 26 V
stroke
LTb
0.58 0.00 0.83 C 2984 2775 M
96 49 V
stroke
LTb
0.58 0.00 0.83 C 3256 2769 M
-176 55 V
stroke
LTb
0.00 0.62 0.45 C 1083 2253 M
95 62 V
stroke
LTb
0.00 0.62 0.45 C 1355 2622 M
1178 2315 L
stroke
LTb
0.58 0.00 0.83 C 3879 2710 M
96 49 V
stroke
LTb
0.58 0.00 0.83 C 4151 2730 M
-176 29 V
stroke
LTb
0.58 0.00 0.83 C 5047 2712 M
95 48 V
stroke
LTb
0.58 0.00 0.83 C 5318 2733 M
-176 27 V
stroke
LTb
0.58 0.00 0.83 C 4327 2697 M
95 49 V
stroke
LTb
0.58 0.00 0.83 C 4599 2715 M
-177 31 V
stroke
LTb
0.58 0.00 0.83 C 3161 2720 M
95 49 V
stroke
LTb
0.58 0.00 0.83 C 3432 2728 M
-176 41 V
stroke
LTb
0.58 0.00 0.83 C 5494 2701 M
96 48 V
stroke
LTb
0.58 0.00 0.83 C 5766 2700 M
-176 49 V
stroke
LTb
0.58 0.00 0.83 C 3609 2689 M
94 49 V
stroke
LTb
0.58 0.00 0.83 C 3879 2710 M
-176 28 V
stroke
LTb
0.58 0.00 0.83 C 4775 2688 M
95 49 V
stroke
LTb
0.58 0.00 0.83 C 5047 2712 M
-177 25 V
stroke
LTb
0.58 0.00 0.83 C 2551 3435 M
95 36 V
stroke
LTb
0.58 0.00 0.83 C 2713 2816 M
95 48 V
stroke
LTb
0.58 0.00 0.83 C 2984 2775 M
-176 89 V
stroke
LTb
0.58 0.00 0.83 C 2632 3003 M
176 -139 V
stroke
LTb
0.58 0.00 0.83 C 4055 2681 M
96 49 V
stroke
LTb
0.58 0.00 0.83 C 4327 2697 M
-176 33 V
stroke
LTb
0.58 0.00 0.83 C 5223 2684 M
95 49 V
stroke
LTb
0.58 0.00 0.83 C 5494 2701 M
-176 32 V
stroke
LTb
0.58 0.00 0.83 C 2537 2957 M
95 46 V
stroke
LTb
0.58 0.00 0.83 C 2456 3401 M
176 -398 V
stroke
LTb
0.00 0.62 0.45 C 988 2191 M
95 62 V
stroke
LTb
0.00 0.62 0.45 C 1259 2572 M
1083 2253 L
stroke
LTb
0.58 0.00 0.83 C 3337 2679 M
95 49 V
stroke
LTb
0.58 0.00 0.83 C 3609 2689 M
-177 39 V
stroke
LTb
0.58 0.00 0.83 C 4503 2666 M
96 49 V
stroke
LTb
0.58 0.00 0.83 C 4775 2688 M
-176 27 V
stroke
LTb
0.58 0.00 0.83 C 5671 2652 M
95 48 V
stroke
LTb
0.58 0.00 0.83 C 2889 2727 M
95 48 V
stroke
LTb
0.58 0.00 0.83 C 3161 2720 M
-177 55 V
stroke
LTb
0.00 0.62 0.45 C 1450 2672 M
61 32 V
stroke
LTb
0.58 0.00 0.83 C 3784 2661 M
95 49 V
stroke
LTb
0.58 0.00 0.83 C 4055 2681 M
-176 29 V
stroke
LTb
0.58 0.00 0.83 C 4951 2663 M
96 49 V
stroke
LTb
0.58 0.00 0.83 C 5223 2684 M
-176 28 V
stroke
LTb
0.58 0.00 0.83 C 4232 2648 M
95 49 V
stroke
LTb
0.58 0.00 0.83 C 4503 2666 M
-176 31 V
stroke
LTb
0.58 0.00 0.83 C 3065 2671 M
96 49 V
stroke
LTb
0.58 0.00 0.83 C 3337 2679 M
-176 41 V
stroke
LTb
0.58 0.00 0.83 C 5399 2653 M
95 48 V
stroke
LTb
0.58 0.00 0.83 C 5671 2652 M
-177 49 V
stroke
LTb
0.58 0.00 0.83 C 3513 2639 M
96 50 V
stroke
LTb
0.58 0.00 0.83 C 3784 2661 M
-175 28 V
stroke
LTb
0.58 0.00 0.83 C 4680 2640 M
95 48 V
stroke
LTb
0.58 0.00 0.83 C 4951 2663 M
-176 25 V
stroke
LTb
0.58 0.00 0.83 C 2456 3401 M
95 34 V
stroke
LTb
0.58 0.00 0.83 C 3960 2633 M
95 48 V
stroke
LTb
0.58 0.00 0.83 C 4232 2648 M
-177 33 V
stroke
LTb
0.58 0.00 0.83 C 2617 2768 M
96 48 V
stroke
LTb
0.58 0.00 0.83 C 2889 2727 M
-176 89 V
stroke
LTb
0.58 0.00 0.83 C 2537 2957 M
176 -141 V
stroke
LTb
0.00 0.62 0.45 C 892 2127 M
96 64 V
stroke
LTb
0.00 0.62 0.45 C 1164 2522 M
988 2191 L
stroke
LTb
0.58 0.00 0.83 C 5127 2636 M
96 48 V
stroke
LTb
0.58 0.00 0.83 C 5399 2653 M
-176 31 V
stroke
LTb
0.58 0.00 0.83 C 2441 2911 M
96 46 V
stroke
LTb
0.58 0.00 0.83 C 2360 3367 M
177 -410 V
stroke
LTb
0.58 0.00 0.83 C 3241 2630 M
96 49 V
stroke
LTb
0.58 0.00 0.83 C 3513 2639 M
-176 40 V
stroke
LTb
0.58 0.00 0.83 C 4408 2617 M
95 49 V
stroke
LTb
0.58 0.00 0.83 C 4680 2640 M
-177 26 V
stroke
LTb
0.58 0.00 0.83 C 2794 2678 M
95 49 V
stroke
LTb
0.58 0.00 0.83 C 3065 2671 M
-176 56 V
stroke
LTb
0.58 0.00 0.83 C 5575 2605 M
96 47 V
stroke
LTb
0.00 0.62 0.45 C 1355 2622 M
95 50 V
stroke
LTb
0.00 0.62 0.45 C 1509 2711 M
-59 -39 V
stroke
LTb
0.58 0.00 0.83 C 3689 2613 M
95 48 V
stroke
LTb
0.58 0.00 0.83 C 3960 2633 M
-176 28 V
stroke
LTb
0.58 0.00 0.83 C 4856 2615 M
95 48 V
stroke
LTb
0.58 0.00 0.83 C 5127 2636 M
-176 27 V
stroke
LTb
0.58 0.00 0.83 C 4136 2600 M
96 48 V
stroke
LTb
0.58 0.00 0.83 C 4408 2617 M
-176 31 V
stroke
LTb
0.58 0.00 0.83 C 2970 2622 M
95 49 V
stroke
LTb
0.58 0.00 0.83 C 3241 2630 M
-176 41 V
stroke
LTb
0.58 0.00 0.83 C 5304 2605 M
95 48 V
stroke
LTb
0.58 0.00 0.83 C 5575 2605 M
-176 48 V
stroke
LTb
0.58 0.00 0.83 C 3418 2590 M
95 49 V
stroke
LTb
0.58 0.00 0.83 C 3689 2613 M
-176 26 V
stroke
LTb
0.58 0.00 0.83 C 4584 2591 M
96 49 V
stroke
LTb
0.58 0.00 0.83 C 4856 2615 M
-176 25 V
stroke
LTb
0.00 0.62 0.45 C 797 2063 M
95 64 V
stroke
LTb
0.00 0.62 0.45 C 1068 2472 M
892 2127 L
stroke
LTb
0.58 0.00 0.83 C 3865 2585 M
95 48 V
stroke
LTb
0.58 0.00 0.83 C 4136 2600 M
-176 33 V
stroke
LTb
0.58 0.00 0.83 C 2522 2721 M
95 47 V
stroke
LTb
0.58 0.00 0.83 C 2794 2678 M
-177 90 V
stroke
LTb
0.58 0.00 0.83 C 2441 2911 M
176 -143 V
stroke
LTb
0.58 0.00 0.83 C 2360 3367 M
96 34 V
stroke
LTb
0.58 0.00 0.83 C 5032 2587 M
95 49 V
stroke
LTb
0.58 0.00 0.83 C 5304 2605 M
-177 31 V
stroke
LTb
0.58 0.00 0.83 C 2346 2866 M
95 45 V
stroke
LTb
0.58 0.00 0.83 C 2265 3334 M
176 -423 V
stroke
LTb
0.58 0.00 0.83 C 3146 2582 M
95 48 V
stroke
LTb
0.58 0.00 0.83 C 3418 2590 M
-177 40 V
stroke
LTb
0.58 0.00 0.83 C 4313 2569 M
95 48 V
stroke
LTb
0.58 0.00 0.83 C 4584 2591 M
-176 26 V
stroke
LTb
0.58 0.00 0.83 C 2698 2630 M
96 48 V
stroke
LTb
0.58 0.00 0.83 C 2970 2622 M
-176 56 V
stroke
LTb
0.58 0.00 0.83 C 5480 2558 M
95 47 V
stroke
LTb
0.00 0.62 0.45 C 1259 2572 M
96 50 V
stroke
LTb
0.00 0.62 0.45 C 1504 2724 M
1355 2622 L
stroke
LTb
0.58 0.00 0.83 C 3594 2564 M
95 49 V
stroke
LTb
0.58 0.00 0.83 C 3865 2585 M
-176 28 V
stroke
LTb
0.58 0.00 0.83 C 4760 2566 M
96 49 V
stroke
LTb
0.58 0.00 0.83 C 5032 2587 M
-176 28 V
stroke
LTb
0.58 0.00 0.83 C 4041 2552 M
95 48 V
stroke
LTb
0.58 0.00 0.83 C 4313 2569 M
-177 31 V
stroke
LTb
0.58 0.00 0.83 C 2874 2574 M
96 48 V
stroke
LTb
0.58 0.00 0.83 C 3146 2582 M
-176 40 V
stroke
LTb
0.58 0.00 0.83 C 3322 2541 M
96 49 V
stroke
LTb
0.58 0.00 0.83 C 3594 2564 M
-176 26 V
stroke
LTb
0.58 0.00 0.83 C 5208 2556 M
96 49 V
stroke
LTb
0.58 0.00 0.83 C 5480 2558 M
-176 47 V
stroke
LTb
0.58 0.00 0.83 C 4489 2543 M
95 48 V
stroke
LTb
0.58 0.00 0.83 C 4760 2566 M
-176 25 V
stroke
LTb
0.00 0.62 0.45 C 701 1998 M
96 65 V
stroke
LTb
0.00 0.62 0.45 C 973 2421 M
797 2063 L
stroke
LTb
0.58 0.00 0.83 C 3769 2536 M
96 49 V
stroke
LTb
0.58 0.00 0.83 C 4041 2552 M
-176 33 V
stroke
LTb
0.58 0.00 0.83 C 2427 2673 M
95 48 V
stroke
LTb
0.58 0.00 0.83 C 2698 2630 M
-176 91 V
stroke
LTb
0.58 0.00 0.83 C 2346 2866 M
176 -145 V
stroke
LTb
0.58 0.00 0.83 C 4937 2539 M
95 48 V
stroke
LTb
0.58 0.00 0.83 C 5208 2556 M
-176 31 V
stroke
LTb
0.58 0.00 0.83 C 2265 3334 M
95 33 V
stroke
LTb
0.58 0.00 0.83 C 3051 2534 M
95 48 V
stroke
LTb
0.58 0.00 0.83 C 3322 2541 M
-176 41 V
stroke
LTb
0.58 0.00 0.83 C 2250 2821 M
96 45 V
stroke
LTb
0.58 0.00 0.83 C 2169 3302 M
177 -436 V
stroke
LTb
0.58 0.00 0.83 C 4217 2521 M
96 48 V
stroke
LTb
0.58 0.00 0.83 C 4489 2543 M
-176 26 V
stroke
LTb
0.58 0.00 0.83 C 2603 2581 M
95 49 V
stroke
LTb
0.58 0.00 0.83 C 2874 2574 M
-176 56 V
stroke
LTb
0.00 0.62 0.45 C 1164 2522 M
95 50 V
stroke
LTb
0.00 0.62 0.45 C 1435 2695 M
1259 2572 L
stroke
LTb
0.58 0.00 0.83 C 5385 2510 M
95 48 V
stroke
LTb
0.58 0.00 0.83 C 3499 2516 M
95 48 V
stroke
LTb
0.58 0.00 0.83 C 3769 2536 M
-175 28 V
stroke
LTb
0.58 0.00 0.83 C 4665 2518 M
95 48 V
stroke
LTb
0.58 0.00 0.83 C 4937 2539 M
-177 27 V
stroke
LTb
0.58 0.00 0.83 C 3945 2504 M
96 48 V
stroke
LTb
0.58 0.00 0.83 C 4217 2521 M
-176 31 V
stroke
LTb
0.58 0.00 0.83 C 2779 2525 M
95 49 V
stroke
LTb
0.58 0.00 0.83 C 3051 2534 M
-177 40 V
stroke
LTb
0.58 0.00 0.83 C 3227 2494 M
95 47 V
stroke
LTb
0.58 0.00 0.83 C 3499 2516 M
-177 25 V
stroke
LTb
0.58 0.00 0.83 C 5113 2508 M
95 48 V
stroke
LTb
0.58 0.00 0.83 C 5385 2510 M
-177 46 V
stroke
LTb
0.00 0.62 0.45 C 878 2370 M
701 1998 L
stroke
LTb
0.58 0.00 0.83 C 4393 2495 M
96 48 V
stroke
LTb
0.58 0.00 0.83 C 4665 2518 M
-176 25 V
stroke
LTb
0.00 0.62 0.45 C 1435 2695 M
68 34 V
stroke
LTb
0.58 0.00 0.83 C 3675 2488 M
94 48 V
stroke
LTb
0.58 0.00 0.83 C 3945 2504 M
-176 32 V
stroke
LTb
0.58 0.00 0.83 C 2331 2626 M
96 47 V
stroke
LTb
0.58 0.00 0.83 C 2603 2581 M
-176 92 V
stroke
LTb
0.58 0.00 0.83 C 2250 2821 M
177 -148 V
stroke
LTb
0.58 0.00 0.83 C 4841 2491 M
96 48 V
stroke
LTb
0.58 0.00 0.83 C 5113 2508 M
-176 31 V
stroke
LTb
0.58 0.00 0.83 C 2955 2487 M
96 47 V
stroke
LTb
0.58 0.00 0.83 C 3227 2494 M
-176 40 V
stroke
LTb
0.58 0.00 0.83 C 4122 2473 M
95 48 V
stroke
LTb
0.58 0.00 0.83 C 4393 2495 M
-176 26 V
stroke
LTb
0.58 0.00 0.83 C 2507 2533 M
96 48 V
stroke
LTb
0.58 0.00 0.83 C 2779 2525 M
-176 56 V
stroke
LTb
0.00 0.62 0.45 C 1068 2472 M
96 50 V
stroke
LTb
0.00 0.62 0.45 C 1340 2648 M
1164 2522 L
stroke
LTb
0.58 0.00 0.83 C 2155 2775 M
95 46 V
stroke
LTb
0.58 0.00 0.83 C 2074 3271 M
176 -450 V
stroke
LTb
0.58 0.00 0.83 C 5289 2463 M
96 47 V
stroke
LTb
0.58 0.00 0.83 C 2169 3302 M
96 32 V
stroke
LTb
0.58 0.00 0.83 C 3403 2468 M
96 48 V
stroke
LTb
0.58 0.00 0.83 C 3675 2488 M
-176 28 V
stroke
LTb
0.58 0.00 0.83 C 4570 2470 M
95 48 V
stroke
LTb
0.58 0.00 0.83 C 4841 2491 M
-176 27 V
stroke
LTb
0.58 0.00 0.83 C 3850 2456 M
95 48 V
stroke
LTb
0.58 0.00 0.83 C 4122 2473 M
-177 31 V
stroke
LTb
0.58 0.00 0.83 C 2684 2477 M
95 48 V
stroke
LTb
0.58 0.00 0.83 C 2955 2487 M
-176 38 V
stroke
LTb
0.58 0.00 0.83 C 5017 2460 M
96 48 V
stroke
LTb
0.58 0.00 0.83 C 5289 2463 M
-176 45 V
stroke
LTb
0.58 0.00 0.83 C 3132 2447 M
95 47 V
stroke
LTb
0.58 0.00 0.83 C 3403 2468 M
-176 26 V
stroke
LTb
0.58 0.00 0.83 C 4298 2447 M
95 48 V
stroke
LTb
0.58 0.00 0.83 C 4570 2470 M
-177 25 V
stroke
LTb
0.00 0.62 0.45 C 1340 2648 M
95 47 V
stroke
LTb
0.00 0.62 0.45 C 1494 2754 M
-59 -59 V
stroke
LTb
0.58 0.00 0.83 C 3579 2440 M
96 48 V
stroke
LTb
0.58 0.00 0.83 C 3850 2456 M
-175 32 V
stroke
LTb
0.58 0.00 0.83 C 2236 2579 M
95 47 V
stroke
LTb
0.58 0.00 0.83 C 2507 2533 M
-176 93 V
stroke
LTb
0.58 0.00 0.83 C 2155 2775 M
176 -149 V
stroke
LTb
0.58 0.00 0.83 C 4746 2442 M
95 49 V
stroke
LTb
0.58 0.00 0.83 C 5017 2460 M
-176 31 V
stroke
LTb
0.00 0.62 0.45 C 973 2421 M
95 51 V
stroke
LTb
0.00 0.62 0.45 C 1245 2601 M
1068 2472 L
stroke
LTb
0.58 0.00 0.83 C 2860 2439 M
95 48 V
stroke
LTb
0.58 0.00 0.83 C 3132 2447 M
-177 40 V
stroke
LTb
0.58 0.00 0.83 C 4026 2425 M
96 48 V
stroke
LTb
0.58 0.00 0.83 C 4298 2447 M
-176 26 V
stroke
LTb
0.58 0.00 0.83 C 2412 2486 M
95 47 V
stroke
LTb
0.58 0.00 0.83 C 2684 2477 M
-177 56 V
stroke
LTb
0.58 0.00 0.83 C 2060 2730 M
95 45 V
stroke
LTb
0.58 0.00 0.83 C 1979 3241 M
176 -466 V
stroke
LTb
0.58 0.00 0.83 C 5194 2415 M
95 48 V
stroke
LTb
0.58 0.00 0.83 C 2074 3271 M
95 31 V
stroke
LTb
0.58 0.00 0.83 C 3308 2420 M
95 48 V
stroke
LTb
0.58 0.00 0.83 C 3579 2440 M
-176 28 V
stroke
LTb
0.58 0.00 0.83 C 4474 2421 M
96 49 V
stroke
LTb
0.58 0.00 0.83 C 4746 2442 M
-176 28 V
stroke
LTb
0.58 0.00 0.83 C 3755 2408 M
95 48 V
stroke
LTb
0.58 0.00 0.83 C 4026 2425 M
-176 31 V
stroke
LTb
0.58 0.00 0.83 C 2588 2429 M
96 48 V
stroke
LTb
0.58 0.00 0.83 C 2860 2439 M
-176 38 V
stroke
LTb
0.58 0.00 0.83 C 4922 2411 M
95 49 V
stroke
LTb
0.58 0.00 0.83 C 5194 2415 M
-177 45 V
stroke
LTb
0.58 0.00 0.83 C 3036 2400 M
96 47 V
stroke
LTb
0.58 0.00 0.83 C 3308 2420 M
-176 27 V
stroke
LTb
0.58 0.00 0.83 C 4203 2399 M
95 48 V
stroke
LTb
0.58 0.00 0.83 C 4474 2421 M
-176 26 V
stroke
LTb
0.00 0.62 0.45 C 1245 2601 M
95 47 V
stroke
LTb
0.00 0.62 0.45 C 1481 2793 M
1340 2648 L
stroke
LTb
0.58 0.00 0.83 C 3484 2393 M
95 47 V
stroke
LTb
0.58 0.00 0.83 C 3755 2408 M
-176 32 V
stroke
LTb
0.58 0.00 0.83 C 2140 2532 M
96 47 V
stroke
LTb
0.58 0.00 0.83 C 2412 2486 M
-176 93 V
stroke
LTb
0.58 0.00 0.83 C 2060 2730 M
176 -151 V
stroke
LTb
0.58 0.00 0.83 C 4650 2395 M
96 47 V
stroke
LTb
0.58 0.00 0.83 C 4922 2411 M
-176 31 V
stroke
LTb
0.00 0.62 0.45 C 878 2370 M
95 51 V
stroke
LTb
0.00 0.62 0.45 C 1149 2552 M
973 2421 L
stroke
LTb
0.58 0.00 0.83 C 2765 2392 M
95 47 V
stroke
LTb
0.58 0.00 0.83 C 3036 2400 M
-176 39 V
stroke
LTb
0.58 0.00 0.83 C 3931 2377 M
95 48 V
stroke
LTb
0.58 0.00 0.83 C 4203 2399 M
-177 26 V
stroke
LTb
0.58 0.00 0.83 C 2317 2438 M
95 48 V
stroke
LTb
0.58 0.00 0.83 C 2588 2429 M
-176 57 V
stroke
LTb
0.58 0.00 0.83 C 5098 2368 M
96 47 V
stroke
LTb
0.58 0.00 0.83 C 1964 2686 M
96 44 V
stroke
LTb
0.58 0.00 0.83 C 1883 3212 M
177 -482 V
stroke
LTb
0.58 0.00 0.83 C 3212 2372 M
96 48 V
stroke
LTb
0.58 0.00 0.83 C 3484 2393 M
-176 27 V
stroke
LTb
0.58 0.00 0.83 C 1979 3241 M
95 30 V
stroke
LTb
0.58 0.00 0.83 C 4379 2374 M
95 47 V
stroke
LTb
0.58 0.00 0.83 C 4650 2395 M
-176 26 V
stroke
LTb
0.58 0.00 0.83 C 3660 2360 M
95 48 V
stroke
LTb
0.58 0.00 0.83 C 3931 2377 M
-176 31 V
stroke
LTb
0.58 0.00 0.83 C 2493 2383 M
95 46 V
stroke
LTb
0.58 0.00 0.83 C 2765 2392 M
-177 37 V
stroke
LTb
0.58 0.00 0.83 C 4827 2364 M
95 47 V
stroke
LTb
0.58 0.00 0.83 C 5098 2368 M
-176 43 V
stroke
LTb
0.58 0.00 0.83 C 2941 2353 M
95 47 V
stroke
LTb
0.58 0.00 0.83 C 3212 2372 M
-176 28 V
stroke
LTb
0.58 0.00 0.83 C 4107 2351 M
96 48 V
stroke
LTb
0.58 0.00 0.83 C 4379 2374 M
-176 25 V
stroke
LTb
0.00 0.62 0.45 C 1149 2552 M
96 49 V
stroke
LTb
0.00 0.62 0.45 C 1421 2788 M
1245 2601 L
stroke
LTb
0.58 0.00 0.83 C 3389 2344 M
95 49 V
stroke
LTb
0.58 0.00 0.83 C 3660 2360 M
-176 33 V
stroke
LTb
0.58 0.00 0.83 C 2045 2485 M
95 47 V
stroke
LTb
0.58 0.00 0.83 C 2317 2438 M
-177 94 V
stroke
LTb
0.58 0.00 0.83 C 1964 2686 M
176 -154 V
stroke
LTb
0.58 0.00 0.83 C 4555 2347 M
95 48 V
stroke
LTb
0.58 0.00 0.83 C 4827 2364 M
-177 31 V
stroke
LTb
0.00 0.62 0.45 C 1054 2500 M
878 2370 L
stroke
LTb
0.58 0.00 0.83 C 2669 2344 M
96 48 V
stroke
LTb
0.58 0.00 0.83 C 2941 2353 M
-176 39 V
stroke
LTb
0.58 0.00 0.83 C 3836 2329 M
95 48 V
stroke
LTb
0.58 0.00 0.83 C 4107 2351 M
-176 26 V
stroke
LTb
0.58 0.00 0.83 C 2221 2392 M
96 46 V
stroke
LTb
0.58 0.00 0.83 C 2493 2383 M
-176 55 V
stroke
LTb
0.58 0.00 0.83 C 5003 2321 M
95 47 V
stroke
LTb
0.58 0.00 0.83 C 1869 2641 M
95 45 V
stroke
LTb
0.58 0.00 0.83 C 1788 3184 M
176 -498 V
stroke
LTb
0.58 0.00 0.83 C 3117 2324 M
95 48 V
stroke
LTb
0.58 0.00 0.83 C 3389 2344 M
-177 28 V
stroke
LTb
0.58 0.00 0.83 C 4283 2326 M
96 48 V
stroke
LTb
0.58 0.00 0.83 C 4555 2347 M
-176 27 V
stroke
LTb
0.58 0.00 0.83 C 3565 2312 M
95 48 V
stroke
LTb
0.58 0.00 0.83 C 3836 2329 M
-176 31 V
stroke
LTb
0.58 0.00 0.83 C 1883 3212 M
96 29 V
stroke
LTb
0.58 0.00 0.83 C 2397 2335 M
96 48 V
stroke
LTb
0.58 0.00 0.83 C 2669 2344 M
-176 39 V
stroke
LTb
0.58 0.00 0.83 C 4731 2316 M
96 48 V
stroke
LTb
0.58 0.00 0.83 C 5003 2321 M
-176 43 V
stroke
LTb
0.58 0.00 0.83 C 2845 2305 M
96 48 V
stroke
LTb
0.58 0.00 0.83 C 3117 2324 M
-176 29 V
stroke
LTb
0.58 0.00 0.83 C 4012 2303 M
95 48 V
stroke
LTb
0.58 0.00 0.83 C 4283 2326 M
-176 25 V
stroke
LTb
0.00 0.62 0.45 C 1054 2500 M
95 52 V
stroke
LTb
0.00 0.62 0.45 C 1325 2739 M
1149 2552 L
stroke
LTb
0.00 0.62 0.45 C 1421 2788 M
53 24 V
stroke
LTb
0.58 0.00 0.83 C 3293 2296 M
96 48 V
stroke
LTb
0.58 0.00 0.83 C 3565 2312 M
-176 32 V
stroke
LTb
0.58 0.00 0.83 C 1950 2438 M
95 47 V
stroke
LTb
0.58 0.00 0.83 C 2221 2392 M
-176 93 V
stroke
LTb
0.58 0.00 0.83 C 1869 2641 M
176 -156 V
stroke
LTb
0.58 0.00 0.83 C 4460 2298 M
95 49 V
stroke
LTb
0.58 0.00 0.83 C 4731 2316 M
-176 31 V
stroke
LTb
0.58 0.00 0.83 C 2574 2296 M
95 48 V
stroke
LTb
0.58 0.00 0.83 C 2845 2305 M
-176 39 V
stroke
LTb
0.58 0.00 0.83 C 3740 2281 M
96 48 V
stroke
LTb
0.58 0.00 0.83 C 4012 2303 M
-176 26 V
stroke
LTb
0.58 0.00 0.83 C 2126 2345 M
95 47 V
stroke
LTb
0.58 0.00 0.83 C 2397 2335 M
-176 57 V
stroke
LTb
0.58 0.00 0.83 C 4908 2273 M
95 48 V
stroke
LTb
0.58 0.00 0.83 C 1773 2596 M
96 45 V
stroke
LTb
0.58 0.00 0.83 C 1693 3158 M
176 -517 V
stroke
LTb
0.58 0.00 0.83 C 3022 2276 M
95 48 V
stroke
LTb
0.58 0.00 0.83 C 3293 2296 M
-176 28 V
stroke
LTb
0.58 0.00 0.83 C 4188 2278 M
95 48 V
stroke
LTb
0.58 0.00 0.83 C 4460 2298 M
-177 28 V
stroke
LTb
0.58 0.00 0.83 C 3469 2264 M
96 48 V
stroke
LTb
0.58 0.00 0.83 C 3740 2281 M
-175 31 V
stroke
LTb
0.58 0.00 0.83 C 2302 2287 M
95 48 V
stroke
LTb
0.58 0.00 0.83 C 2574 2296 M
-177 39 V
stroke
LTb
0.58 0.00 0.83 C 4636 2267 M
95 49 V
stroke
LTb
0.58 0.00 0.83 C 4908 2273 M
-177 43 V
stroke
LTb
0.58 0.00 0.83 C 1788 3184 M
95 28 V
stroke
LTb
0.58 0.00 0.83 C 2750 2257 M
95 48 V
stroke
LTb
0.58 0.00 0.83 C 3022 2276 M
-177 29 V
stroke
LTb
0.58 0.00 0.83 C 3916 2255 M
96 48 V
stroke
LTb
0.58 0.00 0.83 C 4188 2278 M
-176 25 V
stroke
LTb
0.00 0.62 0.45 C 1230 2684 M
1054 2500 L
stroke
LTb
0.58 0.00 0.83 C 3198 2248 M
95 48 V
stroke
LTb
0.58 0.00 0.83 C 3469 2264 M
-176 32 V
stroke
LTb
0.00 0.62 0.45 C 1325 2739 M
96 49 V
stroke
LTb
0.00 0.62 0.45 C 1458 2860 M
-37 -72 V
stroke
LTb
0.58 0.00 0.83 C 1854 2391 M
96 47 V
stroke
LTb
0.58 0.00 0.83 C 2126 2345 M
-176 93 V
stroke
LTb
0.58 0.00 0.83 C 1773 2596 M
177 -158 V
stroke
LTb
0.58 0.00 0.83 C 4364 2250 M
96 48 V
stroke
LTb
0.58 0.00 0.83 C 4636 2267 M
-176 31 V
stroke
LTb
0.58 0.00 0.83 C 2478 2249 M
96 47 V
stroke
LTb
0.58 0.00 0.83 C 2750 2257 M
-176 39 V
stroke
LTb
0.58 0.00 0.83 C 3646 2233 M
94 48 V
stroke
LTb
0.58 0.00 0.83 C 3916 2255 M
-176 26 V
stroke
LTb
0.58 0.00 0.83 C 2030 2297 M
96 48 V
stroke
LTb
0.58 0.00 0.83 C 2302 2287 M
-176 58 V
stroke
LTb
0.58 0.00 0.83 C 4812 2225 M
96 48 V
stroke
LTb
0.58 0.00 0.83 C 1678 2548 M
95 48 V
stroke
LTb
0.58 0.00 0.83 C 1597 3132 M
176 -536 V
stroke
LTb
0.58 0.00 0.83 C 2926 2228 M
96 48 V
stroke
LTb
0.58 0.00 0.83 C 3198 2248 M
-176 28 V
stroke
LTb
0.58 0.00 0.83 C 4093 2229 M
95 49 V
stroke
LTb
0.58 0.00 0.83 C 4364 2250 M
-176 28 V
stroke
LTb
0.58 0.00 0.83 C 3374 2216 M
95 48 V
stroke
LTb
0.58 0.00 0.83 C 3646 2233 M
-177 31 V
stroke
LTb
0.58 0.00 0.83 C 2207 2240 M
95 47 V
stroke
LTb
0.58 0.00 0.83 C 2478 2249 M
-176 38 V
stroke
LTb
0.58 0.00 0.83 C 4541 2219 M
95 48 V
stroke
LTb
0.58 0.00 0.83 C 4812 2225 M
-176 42 V
stroke
LTb
0.58 0.00 0.83 C 2655 2209 M
95 48 V
stroke
LTb
0.58 0.00 0.83 C 2926 2228 M
-176 29 V
stroke
LTb
0.58 0.00 0.83 C 3821 2207 M
95 48 V
stroke
LTb
0.58 0.00 0.83 C 4093 2229 M
-177 26 V
stroke
LTb
0.58 0.00 0.83 C 1693 3158 M
95 26 V
stroke
LTb
0.00 0.62 0.45 C 1230 2684 M
95 55 V
stroke
LTb
0.00 0.62 0.45 C 1430 2941 M
1325 2739 L
stroke
LTb
0.58 0.00 0.83 C 3102 2200 M
96 48 V
stroke
LTb
0.58 0.00 0.83 C 3374 2216 M
-176 32 V
stroke
LTb
0.58 0.00 0.83 C 1759 2342 M
95 49 V
stroke
LTb
0.58 0.00 0.83 C 2030 2297 M
-176 94 V
stroke
LTb
0.58 0.00 0.83 C 1678 2548 M
176 -157 V
stroke
LTb
0.58 0.00 0.83 C 4269 2202 M
95 48 V
stroke
LTb
0.58 0.00 0.83 C 4541 2219 M
-177 31 V
stroke
LTb
0.58 0.00 0.83 C 3550 2185 M
96 48 V
stroke
LTb
0.58 0.00 0.83 C 3821 2207 M
-175 26 V
stroke
LTb
0.58 0.00 0.83 C 2383 2201 M
95 48 V
stroke
LTb
0.58 0.00 0.83 C 2655 2209 M
-177 40 V
stroke
LTb
0.58 0.00 0.83 C 1935 2249 M
95 48 V
stroke
LTb
0.58 0.00 0.83 C 2207 2240 M
-177 57 V
stroke
LTb
0.58 0.00 0.83 C 4717 2177 M
95 48 V
stroke
LTb
0.58 0.00 0.83 C 1583 2497 M
95 51 V
stroke
LTb
0.58 0.00 0.83 C 1502 3080 M
176 -532 V
stroke
LTb
0.58 0.00 0.83 C 2831 2180 M
95 48 V
stroke
LTb
0.58 0.00 0.83 C 3102 2200 M
-176 28 V
stroke
LTb
0.58 0.00 0.83 C 3997 2181 M
96 48 V
stroke
LTb
0.58 0.00 0.83 C 4269 2202 M
-176 27 V
stroke
LTb
0.58 0.00 0.83 C 3279 2167 M
95 49 V
stroke
LTb
0.58 0.00 0.83 C 3550 2185 M
-176 31 V
stroke
LTb
0.58 0.00 0.83 C 2111 2192 M
96 48 V
stroke
LTb
0.58 0.00 0.83 C 2383 2201 M
-176 39 V
stroke
LTb
0.58 0.00 0.83 C 4445 2171 M
96 48 V
stroke
LTb
0.58 0.00 0.83 C 4717 2177 M
-176 42 V
stroke
LTb
0.58 0.00 0.83 C 2559 2161 M
96 48 V
stroke
LTb
0.58 0.00 0.83 C 2831 2180 M
-176 29 V
stroke
LTb
0.58 0.00 0.83 C 3726 2158 M
95 49 V
stroke
LTb
0.58 0.00 0.83 C 3997 2181 M
-176 26 V
stroke
LTb
0.00 0.62 0.45 C 1406 3010 M
1230 2684 L
stroke
LTb
0.58 0.00 0.83 C 3007 2151 M
95 49 V
stroke
LTb
0.58 0.00 0.83 C 3279 2167 M
-177 33 V
stroke
LTb
0.58 0.00 0.83 C 1597 3132 M
96 26 V
stroke
LTb
0.58 0.00 0.83 C 1935 2249 M
-176 93 V
stroke
LTb
0.58 0.00 0.83 C 1583 2497 M
176 -155 V
stroke
LTb
0.58 0.00 0.83 C 4173 2153 M
96 49 V
stroke
LTb
0.58 0.00 0.83 C 4445 2171 M
-176 31 V
stroke
LTb
0.58 0.00 0.83 C 3455 2137 M
95 48 V
stroke
LTb
0.58 0.00 0.83 C 3726 2158 M
-176 27 V
stroke
LTb
0.58 0.00 0.83 C 2288 2153 M
95 48 V
stroke
LTb
0.58 0.00 0.83 C 2559 2161 M
-176 40 V
stroke
LTb
0.58 0.00 0.83 C 2111 2192 M
-176 57 V
stroke
LTb
0.58 0.00 0.83 C 4621 2130 M
96 47 V
stroke
LTb
0.58 0.00 0.83 C 1406 3010 M
177 -513 V
stroke
LTb
0.58 0.00 0.83 C 2735 2132 M
96 48 V
stroke
LTb
0.58 0.00 0.83 C 3007 2151 M
-176 29 V
stroke
LTb
0.58 0.00 0.83 C 3902 2133 M
95 48 V
stroke
LTb
0.58 0.00 0.83 C 4173 2153 M
-176 28 V
stroke
LTb
0.58 0.00 0.83 C 3183 2119 M
96 48 V
stroke
LTb
0.58 0.00 0.83 C 3455 2137 M
-176 30 V
stroke
LTb
0.58 0.00 0.83 C 2288 2153 M
-177 39 V
stroke
LTb
0.58 0.00 0.83 C 4350 2123 M
95 48 V
stroke
LTb
0.58 0.00 0.83 C 4621 2130 M
-176 41 V
stroke
LTb
0.58 0.00 0.83 C 2464 2113 M
95 48 V
stroke
LTb
0.58 0.00 0.83 C 2735 2132 M
-176 29 V
stroke
LTb
0.58 0.00 0.83 C 3631 2110 M
95 48 V
stroke
LTb
0.58 0.00 0.83 C 3902 2133 M
-176 25 V
stroke
LTb
0.58 0.00 0.83 C 2912 2103 M
95 48 V
stroke
LTb
0.58 0.00 0.83 C 3183 2119 M
-176 32 V
stroke
LTb
0.58 0.00 0.83 C 4078 2105 M
95 48 V
stroke
LTb
0.58 0.00 0.83 C 4350 2123 M
-177 30 V
stroke
LTb
0.58 0.00 0.83 C 1502 3080 M
95 52 V
stroke
LTb
0.58 0.00 0.83 C 3360 2089 M
95 48 V
stroke
LTb
0.58 0.00 0.83 C 3631 2110 M
-176 27 V
stroke
LTb
0.58 0.00 0.83 C 2464 2113 M
-176 40 V
stroke
LTb
0.58 0.00 0.83 C 4526 2082 M
95 48 V
stroke
LTb
0.58 0.00 0.83 C 2640 2084 M
95 48 V
stroke
LTb
0.58 0.00 0.83 C 2912 2103 M
-177 29 V
stroke
LTb
0.58 0.00 0.83 C 3806 2084 M
96 49 V
stroke
LTb
0.58 0.00 0.83 C 4078 2105 M
-176 28 V
stroke
LTb
0.58 0.00 0.83 C 3088 2071 M
95 48 V
stroke
LTb
0.58 0.00 0.83 C 3360 2089 M
-177 30 V
stroke
LTb
0.58 0.00 0.83 C 4254 2074 M
96 49 V
stroke
LTb
0.58 0.00 0.83 C 4526 2082 M
-176 41 V
stroke
LTb
0.58 0.00 0.83 C 2640 2084 M
-176 29 V
stroke
LTb
0.58 0.00 0.83 C 3536 2062 M
95 48 V
stroke
LTb
0.58 0.00 0.83 C 3806 2084 M
-175 26 V
stroke
LTb
0.58 0.00 0.83 C 2816 2055 M
96 48 V
stroke
LTb
0.58 0.00 0.83 C 3088 2071 M
-176 32 V
stroke
LTb
0.58 0.00 0.83 C 3983 2057 M
95 48 V
stroke
LTb
0.58 0.00 0.83 C 4254 2074 M
-176 31 V
stroke
LTb
0.58 0.00 0.83 C 1406 3010 M
96 70 V
stroke
LTb
0.58 0.00 0.83 C 3264 2040 M
96 49 V
stroke
LTb
0.58 0.00 0.83 C 3536 2062 M
-176 27 V
stroke
LTb
0.58 0.00 0.83 C 4431 2034 M
95 48 V
stroke
LTb
0.58 0.00 0.83 C 2816 2055 M
-176 29 V
stroke
LTb
0.58 0.00 0.83 C 3711 2036 M
95 48 V
stroke
LTb
0.58 0.00 0.83 C 3983 2057 M
-177 27 V
stroke
LTb
0.58 0.00 0.83 C 2993 2023 M
95 48 V
stroke
LTb
0.58 0.00 0.83 C 3264 2040 M
-176 31 V
stroke
LTb
0.58 0.00 0.83 C 4159 2026 M
95 48 V
stroke
LTb
0.58 0.00 0.83 C 4431 2034 M
-177 40 V
stroke
LTb
0.58 0.00 0.83 C 3440 2014 M
96 48 V
stroke
LTb
0.58 0.00 0.83 C 3711 2036 M
-175 26 V
stroke
LTb
0.58 0.00 0.83 C 2993 2023 M
-177 32 V
stroke
LTb
0.58 0.00 0.83 C 3887 2009 M
96 48 V
stroke
LTb
0.58 0.00 0.83 C 4159 2026 M
-176 31 V
stroke
LTb
0.58 0.00 0.83 C 3169 1992 M
95 48 V
stroke
LTb
0.58 0.00 0.83 C 3440 2014 M
-176 26 V
stroke
LTb
0.58 0.00 0.83 C 4335 1986 M
96 48 V
stroke
LTb
0.58 0.00 0.83 C 3617 1988 M
94 48 V
stroke
LTb
0.58 0.00 0.83 C 3887 2009 M
-176 27 V
stroke
LTb
0.58 0.00 0.83 C 3169 1992 M
-176 31 V
stroke
LTb
0.58 0.00 0.83 C 4064 1978 M
95 48 V
stroke
LTb
0.58 0.00 0.83 C 4335 1986 M
-176 40 V
stroke
LTb
0.58 0.00 0.83 C 3345 1965 M
95 49 V
stroke
LTb
0.58 0.00 0.83 C 3617 1988 M
-177 26 V
stroke
LTb
0.58 0.00 0.83 C 3792 1960 M
95 49 V
stroke
LTb
0.58 0.00 0.83 C 4064 1978 M
-177 31 V
stroke
LTb
0.58 0.00 0.83 C 3345 1965 M
-176 27 V
stroke
LTb
0.58 0.00 0.83 C 4240 1938 M
95 48 V
stroke
LTb
0.58 0.00 0.83 C 3521 1940 M
96 48 V
stroke
LTb
0.58 0.00 0.83 C 3792 1960 M
-175 28 V
stroke
LTb
0.58 0.00 0.83 C 3968 1930 M
96 48 V
stroke
LTb
0.58 0.00 0.83 C 4240 1938 M
-176 40 V
stroke
LTb
0.58 0.00 0.83 C 3521 1940 M
-176 25 V
stroke
LTb
0.58 0.00 0.83 C 3697 1912 M
95 48 V
stroke
LTb
0.58 0.00 0.83 C 3968 1930 M
-176 30 V
stroke
LTb
0.58 0.00 0.83 C 4144 1890 M
96 48 V
stroke
LTb
0.58 0.00 0.83 C 3697 1912 M
-176 28 V
stroke
LTb
0.58 0.00 0.83 C 3873 1881 M
95 49 V
stroke
LTb
0.58 0.00 0.83 C 4144 1890 M
-176 40 V
stroke
LTb
0.58 0.00 0.83 C 3873 1881 M
-176 31 V
stroke
LTb
0.58 0.00 0.83 C 4049 1842 M
95 48 V
stroke
LTb
0.58 0.00 0.83 C 4049 1842 M
-176 39 V
% End plot #1
% Begin plot #2
%pm3d_map_begin
stroke
LTb
0.58 0.00 0.83 C .257 g 2418 3067 N -176 -194 95 49 177 200 h
.2539 g 2323 3011 N -177 -200 96 50 176 206 h
.2505 g 2228 2956 N -176 -206 95 49 176 212 h
.2471 g 2132 2900 N -176 -212 95 49 177 219 h
.2435 g 2037 2843 N -177 -219 96 50 176 226 h
.2397 g 1941 2786 N -176 -226 95 49 177 234 h
.2357 g 1846 2729 N -177 -234 96 50 176 241 h
.2315 g 1751 2672 N -176 -241 95 50 176 248 h
.2272 g 1655 2613 N -176 -248 95 49 177 258 h
.2226 g 1560 2555 N -177 -258 96 50 176 266 h
.2178 g 1465 2495 N -176 -266 95 50 176 276 h
.2127 g 1369 2436 N -176 -276 96 49 176 286 h
.2074 g 1274 2376 N -176 -286 95 50 176 296 h
.2018 g 1178 2315 N -176 -296 95 50 177 307 h
.1959 g 1083 2253 N -177 -307 96 50 176 319 h
.1897 g 988 2191 N -176 -319 95 50 176 331 h
.1831 g 892 2127 N -176 -331 96 50 176 345 h
.1759 g 797 2063 N -176 -345 95 51 176 358 h
.168 g 701 1998 N -176 -358 95 51 177 372 h
.3991 g 2595 3267 N -176 -91 95 48 176 92 h
.399 g 2499 3217 N -176 -92 95 47 177 95 h
.3989 g 2404 3168 N -177 -95 96 48 176 96 h
.3988 g 2309 3119 N -176 -96 95 48 176 97 h
.3986 g 2213 3069 N -176 -97 96 47 176 100 h
.3985 g 2118 3020 N -176 -100 95 48 176 101 h
.3984 g 2022 2970 N -176 -101 95 48 177 103 h
.3983 g 1927 2920 N -177 -103 96 47 176 106 h
.3982 g 1832 2871 N -176 -106 95 48 176 107 h
.3981 g 1736 2821 N -176 -107 96 47 176 110 h
.398 g 1641 2771 N -176 -110 95 47 176 113 h
.398 g 1545 2722 N -176 -113 95 47 177 115 h
.3979 g 1450 2672 N -177 -115 96 47 176 118 h
.3979 g 1355 2622 N -176 -118 95 48 176 120 h
.3978 g 1259 2572 N -176 -120 96 47 176 123 h
.3977 g 1164 2522 N -176 -123 95 47 176 126 h
.3977 g 1068 2472 N -176 -126 95 47 177 129 h
.3968 g 973 2421 N -177 -129 96 49 176 131 h
.3947 g 878 2370 N -176 -131 95 52 176 130 h
.5116 g 2771 3359 N -177 -123 96 45 176 126 h
.5133 g 2676 3312 N -176 -126 95 45 176 128 h
.5151 g 2580 3264 N -176 -128 96 44 176 132 h
.5169 g 2485 3216 N -176 -132 95 45 176 135 h
.5187 g 2389 3169 N -176 -135 95 45 177 137 h
.5206 g 2294 3121 N -177 -137 96 44 176 141 h
.5226 g 2199 3073 N -176 -141 95 44 176 145 h
.5247 g 2103 3026 N -176 -145 96 44 176 148 h
.5269 g 2008 2978 N -176 -148 95 44 176 152 h
.5292 g 1912 2931 N -176 -152 95 44 177 155 h
.5317 g 1817 2884 N -177 -155 96 43 176 159 h
.5343 g 1722 2837 N -176 -159 95 43 176 163 h
.5371 g 1626 2790 N -176 -163 96 43 176 167 h
.5399 g 1531 2742 N -176 -167 95 42 176 173 h
.5429 g 1435 2695 N -176 -173 95 43 177 177 h
.5459 g 1340 2648 N -177 -177 96 42 176 182 h
.5491 g 1245 2601 N -176 -182 95 42 176 187 h
.5502 g 1149 2552 N -176 -187 96 49 176 187 h
.5478 g 1054 2500 N -176 -187 95 55 176 184 h
.6557 g 2947 3485 N -176 -166 96 39 176 172 h
.6611 g 2852 3440 N -176 -172 95 38 176 179 h
.6668 g 2756 3396 N -176 -179 95 38 177 185 h
.6727 g 2661 3351 N -177 -185 96 37 176 193 h
.6788 g 2566 3306 N -176 -193 95 37 176 201 h
.6852 g 2470 3262 N -176 -201 96 36 176 209 h
.6919 g 2375 3218 N -176 -209 95 36 176 217 h
.6991 g 2279 3174 N -176 -217 95 34 177 227 h
.7067 g 2184 3130 N -177 -227 96 34 176 237 h
.7146 g 2089 3086 N -176 -237 95 33 176 248 h
.7232 g 1993 3043 N -176 -248 96 32 176 259 h
.7323 g 1898 3000 N -176 -259 95 31 176 271 h
.7419 g 1802 2957 N -176 -271 95 30 177 284 h
.752 g 1707 2915 N -177 -284 96 29 176 297 h
.7626 g 1612 2872 N -176 -297 95 28 176 312 h
.7738 g 1516 2830 N -176 -312 95 26 177 328 h
.7855 g 1421 2788 N -177 -328 96 26 176 344 h
.7906 g 1325 2739 N -176 -344 95 52 177 341 h
.7839 g 1230 2684 N -177 -341 96 70 176 326 h
.6166 g 3123 3657 N -176 320 95 47 177 -328 h
.6213 g 3028 3619 N -177 328 96 47 176 -337 h
.6262 g 2933 3581 N -176 337 95 46 176 -345 h
.6314 g 2837 3544 N -176 345 96 47 176 -355 h
.6367 g 2742 3507 N -176 355 95 47 176 -365 h
.6423 g 2646 3471 N -176 365 95 46 177 -375 h
.6482 g 2551 3435 N -177 375 96 46 176 -385 h
.6545 g 2456 3401 N -176 385 95 47 176 -398 h
.6611 g 2360 3367 N -176 398 95 46 177 -410 h
.6682 g 2265 3334 N -177 410 96 46 176 -423 h
.6759 g 2169 3302 N -176 423 95 45 177 -436 h
.684 g 2074 3271 N -177 436 96 45 176 -450 h
.6926 g 1979 3241 N -176 450 95 46 176 -466 h
.7017 g 1883 3212 N -176 466 95 45 177 -482 h
.7114 g 1788 3184 N -177 482 96 44 176 -498 h
.7215 g 1693 3158 N -176 498 95 45 176 -517 h
.7322 g 1597 3132 N -176 517 96 45 176 -536 h
.7369 g 1502 3080 N -176 536 95 48 176 -532 h
.7312 g 1406 3010 N -176 532 95 51 177 -513 h
.4564 g 3300 3329 N -176 128 95 48 176 -129 h
.4572 g 3204 3282 N -176 129 95 48 177 -130 h
.458 g 3109 3236 N -177 130 96 48 176 -132 h
.4589 g 3013 3189 N -176 132 95 48 177 -133 h
.4598 g 2918 3142 N -177 133 96 48 176 -134 h
.4607 g 2823 3096 N -176 134 95 48 176 -136 h
.4616 g 2727 3050 N -176 136 95 48 177 -138 h
.4627 g 2632 3003 N -177 138 96 48 176 -139 h
.4638 g 2537 2957 N -176 139 95 48 176 -141 h
.465 g 2441 2911 N -176 141 96 48 176 -143 h
.4665 g 2346 2866 N -176 143 95 47 176 -145 h
.4681 g 2250 2821 N -176 145 95 48 177 -148 h
.4698 g 2155 2775 N -177 148 96 47 176 -149 h
.4717 g 2060 2730 N -176 149 95 47 176 -151 h
.4737 g 1964 2686 N -176 151 96 47 176 -154 h
.4758 g 1869 2641 N -176 154 95 47 176 -156 h
.478 g 1773 2596 N -176 156 95 47 177 -158 h
.4791 g 1678 2548 N -177 158 96 47 176 -157 h
.4784 g 1583 2497 N -176 157 95 49 176 -155 h
.3943 g 3476 3200 N -176 83 95 49 176 -84 h
.3943 g 3381 3152 N -176 84 95 48 176 -84 h
.3944 g 3285 3104 N -176 84 96 49 176 -85 h
.3944 g 3190 3056 N -176 85 95 49 176 -86 h
.3944 g 3094 3008 N -176 86 95 49 177 -87 h
.3944 g 2999 2960 N -177 87 96 48 176 -87 h
.3944 g 2904 2912 N -176 87 95 49 176 -88 h
.3945 g 2808 2864 N -176 88 96 49 176 -89 h
.3946 g 2713 2816 N -176 89 95 48 176 -89 h
.3948 g 2617 2768 N -176 89 95 49 177 -90 h
.395 g 2522 2721 N -177 90 96 48 176 -91 h
.3954 g 2427 2673 N -176 91 95 49 176 -92 h
.3958 g 2331 2626 N -176 92 96 48 176 -93 h
.3966 g 2236 2579 N -176 93 95 47 176 -93 h
.3977 g 2140 2532 N -176 93 95 48 177 -94 h
.3988 g 2045 2485 N -177 94 96 46 176 -93 h
.3998 g 1950 2438 N -176 93 95 47 176 -93 h
.4006 g 1854 2391 N -176 93 96 48 176 -94 h
.4007 g 1759 2342 N -176 94 95 48 176 -93 h
.3623 g 3652 3116 N -176 55 96 48 175 -54 h
.362 g 3557 3068 N -175 54 95 49 175 -55 h
.3618 g 3461 3019 N -175 55 94 49 177 -55 h
.3615 g 3366 2970 N -177 55 96 49 176 -55 h
.3612 g 3271 2921 N -176 55 95 49 176 -55 h
.3609 g 3175 2873 N -176 55 96 48 176 -55 h
.3606 g 3080 2824 N -176 55 95 49 176 -55 h
.3603 g 2984 2775 N -176 55 95 49 177 -55 h
.36 g 2889 2727 N -177 55 96 49 176 -56 h
.3597 g 2794 2678 N -176 56 95 49 176 -56 h
.3596 g 2698 2630 N -176 56 96 48 176 -56 h
.3594 g 2603 2581 N -176 56 95 49 176 -56 h
.3594 g 2507 2533 N -176 56 95 48 177 -56 h
.3599 g 2412 2486 N -177 56 96 48 176 -57 h
.3607 g 2317 2438 N -176 57 95 46 176 -55 h
.3615 g 2221 2392 N -176 55 96 48 176 -57 h
.3623 g 2126 2345 N -176 57 95 48 176 -58 h
.3629 g 2030 2297 N -176 58 95 47 177 -57 h
.3634 g 1935 2249 N -177 57 96 48 176 -57 h
.348 g 3827 3062 N -176 40 95 49 177 -41 h
.3477 g 3732 3013 N -177 41 96 48 176 -40 h
.3473 g 3638 2964 N -176 40 95 49 175 -40 h
.347 g 3542 2915 N -175 40 96 49 175 -40 h
.3467 g 3447 2866 N -175 40 94 49 176 -40 h
.3463 g 3351 2818 N -176 40 95 49 177 -41 h
.3459 g 3256 2769 N -177 41 96 49 176 -41 h
.3455 g 3161 2720 N -176 41 95 49 176 -41 h
.3451 g 3065 2671 N -176 41 96 49 176 -41 h
.3449 g 2970 2622 N -176 41 95 48 176 -40 h
.3449 g 2874 2574 N -176 40 95 48 177 -40 h
.3451 g 2779 2525 N -177 40 96 47 176 -38 h
.3453 g 2684 2477 N -176 38 95 48 176 -38 h
.3457 g 2588 2429 N -176 38 95 47 177 -37 h
.3463 g 2493 2383 N -177 37 96 48 176 -39 h
.3469 g 2397 2335 N -176 39 95 48 177 -39 h
.3475 g 2302 2287 N -177 39 96 47 176 -38 h
.348 g 2207 2240 N -176 38 95 48 176 -39 h
.3484 g 2111 2192 N -176 39 95 48 177 -39 h
.3401 g 4004 3021 N -176 38 95 49 176 -38 h
.3398 g 3908 2973 N -176 38 95 49 177 -39 h
.3395 g 3813 2924 N -177 39 96 49 176 -39 h
.3391 g 3717 2875 N -176 39 95 49 177 -39 h
.3387 g 3623 2826 N -177 39 96 49 175 -39 h
.3382 g 3528 2777 N -175 39 95 49 175 -39 h
.3377 g 3432 2728 N -175 39 94 49 177 -39 h
.3372 g 3337 2679 N -177 39 96 50 176 -40 h
.3365 g 3241 2630 N -176 40 95 49 177 -40 h
.3362 g 3146 2582 N -177 40 96 49 176 -41 h
.3366 g 3051 2534 N -176 41 95 47 176 -40 h
.3373 g 2955 2487 N -176 40 95 47 177 -40 h
.3379 g 2860 2439 N -177 40 96 47 176 -39 h
.3385 g 2765 2392 N -176 39 95 47 176 -39 h
.339 g 2669 2344 N -176 39 96 48 176 -39 h
.3395 g 2574 2296 N -176 39 95 48 176 -39 h
.34 g 2478 2249 N -176 39 95 48 177 -40 h
.3404 g 2383 2201 N -177 40 96 48 176 -40 h
.3408 g 2288 2153 N -176 40 95 48 176 -40 h
.3367 g 4180 2983 N -177 30 96 49 176 -30 h
.3364 g 4085 2934 N -176 30 95 48 176 -29 h
.3361 g 3989 2885 N -176 29 96 49 176 -29 h
.3358 g 3894 2836 N -176 29 95 49 176 -29 h
.3355 g 3798 2787 N -176 29 95 48 177 -28 h
.3351 g 3703 2738 N -177 28 96 49 176 -28 h
.3347 g 3609 2689 N -176 28 95 49 175 -28 h
.3342 g 3513 2639 N -175 28 95 48 176 -26 h
.3337 g 3418 2590 N -176 26 95 49 176 -26 h
.3334 g 3322 2541 N -176 26 95 48 177 -25 h
.3337 g 3227 2494 N -177 25 96 48 176 -26 h
.3343 g 3132 2447 N -176 26 95 48 176 -27 h
.3348 g 3036 2400 N -176 27 96 48 176 -28 h
.3353 g 2941 2353 N -176 28 95 48 176 -29 h
.3357 g 2845 2305 N -176 29 95 48 177 -29 h
.3361 g 2750 2257 N -177 29 96 48 176 -29 h
.3364 g 2655 2209 N -176 29 95 48 176 -29 h
.3368 g 2559 2161 N -176 29 96 48 176 -29 h
.3371 g 2464 2113 N -176 29 95 48 176 -29 h
.337 g 4356 2953 N -176 29 96 49 176 -29 h
.3368 g 4261 2905 N -176 29 95 48 176 -29 h
.3367 g 4165 2856 N -176 29 95 49 177 -29 h
.3365 g 4070 2807 N -177 29 96 48 176 -28 h
.3364 g 3975 2759 N -176 28 95 49 176 -29 h
.3362 g 3879 2710 N -176 29 96 49 176 -29 h
.3361 g 3784 2661 N -176 29 95 48 176 -28 h
.336 g 3689 2613 N -176 28 95 48 176 -28 h
.3359 g 3594 2564 N -176 28 96 49 175 -28 h
.3358 g 3499 2516 N -175 28 94 48 176 -28 h
.336 g 3403 2468 N -176 28 96 48 176 -28 h
.3362 g 3308 2420 N -176 28 95 47 176 -27 h
.3364 g 3212 2372 N -176 27 95 49 177 -28 h
.3366 g 3117 2324 N -177 28 96 48 176 -28 h
.3368 g 3022 2276 N -176 28 95 48 176 -28 h
.337 g 2926 2228 N -176 28 96 48 176 -28 h
.3372 g 2831 2180 N -176 28 95 49 176 -29 h
.3374 g 2735 2132 N -176 29 95 48 177 -29 h
.3376 g 2640 2084 N -177 29 96 48 176 -29 h
.3361 g 4532 2924 N -176 33 95 48 177 -32 h
.336 g 4437 2876 N -177 32 96 49 176 -33 h
.3358 g 4342 2827 N -176 33 95 49 176 -33 h
.3357 g 4246 2779 N -176 33 96 48 176 -33 h
.3355 g 4151 2730 N -176 33 95 49 176 -33 h
.3353 g 4055 2681 N -176 33 95 49 177 -33 h
.3353 g 3960 2633 N -177 33 96 48 176 -33 h
.3354 g 3865 2585 N -176 33 95 48 176 -33 h
.3355 g 3769 2536 N -176 33 96 48 176 -32 h
.3356 g 3675 2488 N -176 32 95 48 175 -32 h
.3358 g 3579 2440 N -175 32 95 48 176 -32 h
.3359 g 3484 2393 N -176 32 95 48 176 -33 h
.3361 g 3389 2344 N -176 33 95 48 176 -32 h
.3363 g 3293 2296 N -176 32 96 48 176 -32 h
.3365 g 3198 2248 N -176 32 95 48 176 -32 h
.3366 g 3102 2200 N -176 32 95 49 177 -33 h
.3368 g 3007 2151 N -177 33 96 48 176 -32 h
.337 g 2912 2103 N -176 32 95 48 176 -32 h
.3371 g 2816 2055 N -176 32 95 48 177 -32 h
.3345 g 4709 2892 N -176 31 95 48 176 -31 h
.3343 g 4613 2843 N -176 31 96 49 176 -31 h
.3341 g 4518 2794 N -176 31 95 49 176 -31 h
.3339 g 4422 2746 N -176 31 95 48 177 -31 h
.3337 g 4327 2697 N -177 31 96 49 176 -31 h
.3335 g 4232 2648 N -176 31 95 49 176 -31 h
.3334 g 4136 2600 N -176 31 95 48 177 -31 h
.3336 g 4041 2552 N -177 31 96 48 176 -31 h
.3338 g 3945 2504 N -176 31 95 48 177 -31 h
.334 g 3850 2456 N -177 31 96 48 176 -31 h
.3342 g 3755 2408 N -176 31 95 48 176 -31 h
.3345 g 3660 2360 N -176 31 95 48 176 -31 h
.3347 g 3565 2312 N -176 31 96 48 175 -31 h
.3349 g 3469 2264 N -175 31 94 48 177 -31 h
.3351 g 3374 2216 N -177 31 96 48 176 -31 h
.3353 g 3279 2167 N -176 31 95 48 176 -30 h
.3355 g 3183 2119 N -176 30 95 48 177 -30 h
.3356 g 3088 2071 N -177 30 96 49 176 -31 h
.3358 g 2993 2023 N -176 31 95 48 176 -31 h
.3354 g 4885 2861 N -177 26 96 49 176 -27 h
.3353 g 4789 2812 N -176 27 95 48 177 -26 h
.3351 g 4694 2763 N -177 26 96 49 176 -26 h
.3349 g 4599 2715 N -176 26 95 49 176 -27 h
.3347 g 4503 2666 N -176 27 95 48 177 -26 h
.3345 g 4408 2617 N -177 26 96 49 176 -26 h
.3345 g 4313 2569 N -176 26 95 48 176 -26 h
.3346 g 4217 2521 N -176 26 96 48 176 -26 h
.3348 g 4122 2473 N -176 26 95 48 176 -26 h
.335 g 4026 2425 N -176 26 95 48 177 -26 h
.3352 g 3931 2377 N -177 26 96 48 176 -26 h
.3354 g 3836 2329 N -176 26 95 48 176 -26 h
.3356 g 3740 2281 N -176 26 96 48 176 -26 h
.3358 g 3646 2233 N -176 26 95 48 175 -26 h
.336 g 3550 2185 N -175 26 95 49 176 -27 h
.3362 g 3455 2137 N -176 27 95 48 176 -27 h
.3364 g 3360 2089 N -176 27 95 48 176 -27 h
.3365 g 3264 2040 N -176 27 96 48 176 -26 h
.3367 g 3169 1992 N -176 26 95 49 176 -27 h
.3386 g 5061 2834 N -176 26 96 48 176 -25 h
.3385 g 4966 2786 N -176 25 95 49 176 -26 h
.3384 g 4870 2737 N -176 26 95 48 177 -25 h
.3383 g 4775 2688 N -177 25 96 49 176 -25 h
.3382 g 4680 2640 N -176 25 95 48 176 -25 h
.3381 g 4584 2591 N -176 25 96 49 176 -25 h
.338 g 4489 2543 N -176 25 95 48 176 -25 h
.3381 g 4393 2495 N -176 25 95 48 177 -25 h
.3383 g 4298 2447 N -177 25 96 49 176 -26 h
.3384 g 4203 2399 N -176 26 95 47 176 -25 h
.3385 g 4107 2351 N -176 25 96 48 176 -25 h
.3387 g 4012 2303 N -176 25 95 48 176 -25 h
.3388 g 3916 2255 N -176 25 95 49 177 -26 h
.3389 g 3821 2207 N -177 26 96 48 176 -26 h
.3391 g 3726 2158 N -176 26 95 48 176 -25 h
.3392 g 3631 2110 N -176 25 96 49 175 -26 h
.3393 g 3536 2062 N -175 26 95 48 175 -26 h
.3395 g 3440 2014 N -175 26 94 48 177 -26 h
.3396 g 3345 1965 N -177 26 96 48 176 -25 h
.3412 g 5237 2809 N -176 28 95 48 177 -28 h
.3411 g 5142 2760 N -177 28 96 48 176 -27 h
.3411 g 5047 2712 N -176 27 95 49 176 -28 h
.3411 g 4951 2663 N -176 28 96 48 176 -27 h
.341 g 4856 2615 N -176 27 95 49 176 -28 h
.341 g 4760 2566 N -176 28 95 48 177 -27 h
.341 g 4665 2518 N -177 27 96 48 176 -27 h
.3411 g 4570 2470 N -176 27 95 49 176 -28 h
.3412 g 4474 2421 N -176 28 96 47 176 -26 h
.3412 g 4379 2374 N -176 26 95 48 176 -27 h
.3413 g 4283 2326 N -176 27 95 49 177 -28 h
.3414 g 4188 2278 N -177 28 96 48 176 -28 h
.3415 g 4093 2229 N -176 28 95 48 176 -27 h
.3416 g 3997 2181 N -176 27 96 49 176 -28 h
.3417 g 3902 2133 N -176 28 95 48 176 -28 h
.3418 g 3806 2084 N -176 28 95 48 177 -27 h
.3419 g 3711 2036 N -177 27 96 48 176 -27 h
.342 g 3617 1988 N -176 27 95 49 175 -28 h
.3421 g 3521 1940 N -175 28 95 48 176 -28 h
.3413 g 5414 2781 N -176 31 95 49 176 -32 h
.3413 g 5318 2733 N -176 32 96 48 176 -32 h
.3413 g 5223 2684 N -176 32 95 48 176 -31 h
.3414 g 5127 2636 N -176 31 95 48 177 -31 h
.3414 g 5032 2587 N -177 31 96 49 176 -31 h
.3414 g 4937 2539 N -176 31 95 48 176 -31 h
.3415 g 4841 2491 N -176 31 96 48 176 -31 h
.3416 g 4746 2442 N -176 31 95 49 176 -31 h
.3417 g 4650 2395 N -176 31 95 47 177 -31 h
.3417 g 4555 2347 N -177 31 96 48 176 -31 h
.3418 g 4460 2298 N -176 31 95 49 176 -31 h
.342 g 4364 2250 N -176 31 95 48 177 -31 h
.3421 g 4269 2202 N -177 31 96 48 176 -31 h
.3422 g 4173 2153 N -176 31 95 48 177 -30 h
.3423 g 4078 2105 N -177 30 96 49 176 -31 h
.3424 g 3983 2057 N -176 31 95 48 176 -31 h
.3425 g 3887 2009 N -176 31 95 48 177 -31 h
.3426 g 3792 1960 N -177 31 96 48 176 -30 h
.3426 g 3697 1912 N -176 30 95 49 176 -31 h
.3322 g 5590 2749 N -176 51 95 47 176 -49 h
.3327 g 5494 2701 N -176 49 95 48 177 -49 h
.3332 g 5399 2653 N -177 49 96 47 176 -48 h
.3336 g 5304 2605 N -176 48 95 47 176 -47 h
.3341 g 5208 2556 N -176 47 95 48 177 -46 h
.3345 g 5113 2508 N -177 46 96 47 176 -45 h
.3348 g 5017 2460 N -176 45 95 48 177 -45 h
.3352 g 4922 2411 N -177 45 96 47 176 -43 h
.3356 g 4827 2364 N -176 43 95 47 176 -43 h
.3359 g 4731 2316 N -176 43 95 48 177 -43 h
.3362 g 4636 2267 N -177 43 96 48 176 -42 h
.3365 g 4541 2219 N -176 42 95 48 176 -42 h
.3368 g 4445 2171 N -176 42 96 47 176 -41 h
.3371 g 4350 2123 N -176 41 95 48 176 -41 h
.3374 g 4254 2074 N -176 41 95 48 177 -40 h
.3377 g 4159 2026 N -177 40 96 48 176 -40 h
.3379 g 4064 1978 N -176 40 95 48 176 -40 h
.3382 g 3968 1930 N -176 40 96 48 176 -40 h
.3384 g 3873 1881 N -176 40 95 48 176 -39 h
%pm3d_map_end
5.000 UL
LTb
0.58 0.00 0.83 C % End plot #2
1.000 UL
LTb
LCb setrgbcolor
4363 765 M
1812 920 V
stroke
LTb
LCb setrgbcolor
4363 765 M
1225 1296 L
stroke
LTb
LCb setrgbcolor
1225 1296 M
1518 771 V
stroke
LTb
LCb setrgbcolor
6175 1685 M
4351 1994 L
stroke
LTb
LCb setrgbcolor
1225 3135 M
0 -1839 V
stroke
0.500 UL
LTa
LCa setrgbcolor
1225 1296 M
1518 771 V
stroke
1.000 UL
LTb
LCb setrgbcolor
1225 1296 M
53 28 V
stroke
1112 1201 M
[ [(Helvetica) 220.0 0.0 true true 0 (100)]
] -73.3 MCshow
1.000 UL
LTb
LCb setrgbcolor
0.500 UL
LTa
LCa setrgbcolor
1748 1208 M
1517 770 V
stroke
1.000 UL
LTb
LCb setrgbcolor
1748 1208 M
54 27 V
stroke
1635 1113 M
[ [(Helvetica) 220.0 0.0 true true 0 (200)]
] -73.3 MCshow
1.000 UL
LTb
LCb setrgbcolor
0.500 UL
LTa
LCa setrgbcolor
2271 1119 M
1526 775 V
stroke
1.000 UL
LTb
LCb setrgbcolor
2271 1119 M
54 28 V
stroke
2158 1024 M
[ [(Helvetica) 220.0 0.0 true true 0 (300)]
] -73.3 MCshow
1.000 UL
LTb
LCb setrgbcolor
0.500 UL
LTa
LCa setrgbcolor
2794 1031 M
1812 920 V
stroke
1.000 UL
LTb
LCb setrgbcolor
2794 1031 M
54 27 V
stroke
LTb
LCb setrgbcolor
4552 1923 M
54 28 V
stroke
2682 936 M
[ [(Helvetica) 220.0 0.0 true true 0 (400)]
] -73.3 MCshow
1.000 UL
LTb
LCb setrgbcolor
0.500 UL
LTa
LCa setrgbcolor
3317 942 M
1812 920 V
stroke
1.000 UL
LTb
LCb setrgbcolor
3317 942 M
54 28 V
stroke
LTb
LCb setrgbcolor
5075 1835 M
54 27 V
stroke
3205 847 M
[ [(Helvetica) 220.0 0.0 true true 0 (500)]
] -73.3 MCshow
1.000 UL
LTb
LCb setrgbcolor
0.500 UL
LTa
LCa setrgbcolor
3840 854 M
1812 920 V
stroke
1.000 UL
LTb
LCb setrgbcolor
3840 854 M
53 27 V
stroke
LTb
LCb setrgbcolor
5598 1746 M
54 28 V
stroke
3727 759 M
[ [(Helvetica) 220.0 0.0 true true 0 (600)]
] -73.3 MCshow
1.000 UL
LTb
LCb setrgbcolor
0.500 UL
LTa
LCa setrgbcolor
4363 765 M
1812 920 V
stroke
1.000 UL
LTb
LCb setrgbcolor
4363 765 M
54 28 V
stroke
LTb
LCb setrgbcolor
6122 1658 M
53 27 V
stroke
4250 670 M
[ [(Helvetica) 220.0 0.0 true true 0 (700)]
] -73.3 MCshow
1.000 UL
LTb
LCb setrgbcolor
LCb setrgbcolor
2341 801 M
[ [(Helvetica) 220.0 0.0 true true 0 (nb)]
] -73.3 MCshow
LTb
0.500 UL
LTa
LCa setrgbcolor
4363 765 M
1225 1296 L
stroke
1.000 UL
LTb
LCb setrgbcolor
4363 765 M
-55 10 V
stroke
LTb
LCb setrgbcolor
1279 1287 M
-54 9 V
stroke
4477 733 M
[ [(Helvetica) 220.0 0.0 true true 0 (0)]
] -73.3 MCshow
1.000 UL
LTb
LCb setrgbcolor
0.500 UL
LTa
LCa setrgbcolor
4665 919 M
1527 1450 L
stroke
1.000 UL
LTb
LCb setrgbcolor
4665 919 M
-55 9 V
stroke
LTb
LCb setrgbcolor
1581 1440 M
-54 10 V
stroke
4779 886 M
[ [(Helvetica) 220.0 0.0 true true 0 (2)]
] -73.3 MCshow
1.000 UL
LTb
LCb setrgbcolor
0.500 UL
LTa
LCa setrgbcolor
4967 1072 M
1829 1603 L
stroke
1.000 UL
LTb
LCb setrgbcolor
4967 1072 M
-54 9 V
stroke
LTb
LCb setrgbcolor
1883 1594 M
-54 9 V
stroke
5081 1040 M
[ [(Helvetica) 220.0 0.0 true true 0 (4)]
] -73.3 MCshow
1.000 UL
LTb
LCb setrgbcolor
0.500 UL
LTa
LCa setrgbcolor
5269 1225 M
2131 1756 L
stroke
1.000 UL
LTb
LCb setrgbcolor
5269 1225 M
-54 10 V
stroke
LTb
LCb setrgbcolor
2185 1747 M
-54 9 V
stroke
5383 1193 M
[ [(Helvetica) 220.0 0.0 true true 0 (6)]
] -73.3 MCshow
1.000 UL
LTb
LCb setrgbcolor
0.500 UL
LTa
LCa setrgbcolor
5571 1379 M
2433 1910 L
stroke
1.000 UL
LTb
LCb setrgbcolor
5571 1379 M
-54 9 V
stroke
LTb
LCb setrgbcolor
2487 1900 M
-54 10 V
stroke
5686 1346 M
[ [(Helvetica) 220.0 0.0 true true 0 (8)]
] -73.3 MCshow
1.000 UL
LTb
LCb setrgbcolor
0.500 UL
LTa
LCa setrgbcolor
5873 1532 M
2735 2063 L
stroke
1.000 UL
LTb
LCb setrgbcolor
5873 1532 M
-54 9 V
stroke
LTb
LCb setrgbcolor
2790 2054 M
-55 9 V
stroke
5988 1500 M
[ [(Helvetica) 220.0 0.0 true true 0 (10)]
] -73.3 MCshow
1.000 UL
LTb
LCb setrgbcolor
0.500 UL
LTa
LCa setrgbcolor
6175 1685 M
4351 1994 L
stroke
1.000 UL
LTb
LCb setrgbcolor
6175 1685 M
-54 9 V
stroke
6290 1653 M
[ [(Helvetica) 220.0 0.0 true true 0 (12)]
] -73.3 MCshow
1.000 UL
LTb
LCb setrgbcolor
LCb setrgbcolor
6054 1093 M
[ [(Helvetica) 220.0 0.0 true true 0 (n)]
[(Helvetica) 176.0 -66.0 true true 0 (thr)]
] -51.3 MCshow
LTb
1.000 UL
LTb
LCb setrgbcolor
1288 1910 M
-63 0 V
stroke
1099 1910 M
[ [(Helvetica) 220.0 0.0 true true 0 (0)]
] -73.3 MRshow
1.000 UL
LTb
LCb setrgbcolor
1.000 UL
LTb
LCb setrgbcolor
1288 2085 M
-63 0 V
stroke
1099 2085 M
[ [(Helvetica) 220.0 0.0 true true 0 (10)]
] -73.3 MRshow
1.000 UL
LTb
LCb setrgbcolor
1.000 UL
LTb
LCb setrgbcolor
1288 2260 M
-63 0 V
stroke
1099 2260 M
[ [(Helvetica) 220.0 0.0 true true 0 (20)]
] -73.3 MRshow
1.000 UL
LTb
LCb setrgbcolor
1.000 UL
LTb
LCb setrgbcolor
1288 2434 M
-63 0 V
stroke
1099 2434 M
[ [(Helvetica) 220.0 0.0 true true 0 (30)]
] -73.3 MRshow
1.000 UL
LTb
LCb setrgbcolor
1.000 UL
LTb
LCb setrgbcolor
1288 2609 M
-63 0 V
stroke
1099 2609 M
[ [(Helvetica) 220.0 0.0 true true 0 (40)]
] -73.3 MRshow
1.000 UL
LTb
LCb setrgbcolor
1.000 UL
LTb
LCb setrgbcolor
1284 2784 M
-59 0 V
stroke
1099 2784 M
[ [(Helvetica) 220.0 0.0 true true 0 (50)]
] -73.3 MRshow
1.000 UL
LTb
LCb setrgbcolor
1.000 UL
LTb
LCb setrgbcolor
1288 2960 M
-63 0 V
stroke
1099 2960 M
[ [(Helvetica) 220.0 0.0 true true 0 (60)]
] -73.3 MRshow
1.000 UL
LTb
LCb setrgbcolor
1.000 UL
LTb
LCb setrgbcolor
1288 3135 M
-63 0 V
stroke
1099 3135 M
[ [(Helvetica) 220.0 0.0 true true 0 (70)]
] -73.3 MRshow
1.000 UL
LTb
LCb setrgbcolor
LCb setrgbcolor
301 2522 M
[ [(Helvetica) 220.0 0.0 true true 0 (t \(s\))]
] -73.3 MCshow
LTb
stroke gsave	%% draw gray scale smooth box
maxcolors 0 gt {/imax maxcolors def} {/imax 1024 def} ifelse
6270 2097 translate 250 1368 scale 0 setlinewidth
/ystep 1 imax div def /y0 0 def /ii 0 def
{ y0 g 0 y0 N 1 0 V 0 ystep V -1 0 f
/y0 y0 ystep add def /ii ii 1 add def
ii imax ge {exit} if } loop
grestore 0 setgray
1.000 UL
LTb
LCb setrgbcolor
6270 2097 N
250 0 V
0 1368 V
-250 0 V
0 -1368 V
Z stroke
1.000 UL
LTb
LCb setrgbcolor
1.000 UL
LTb
LCb setrgbcolor
6520 2097 M
-63 0 V
stroke
6652 2097 M
[ [(Helvetica) 220.0 0.0 true true 0 (0)]
] -73.3 MLshow
1.000 UL
LTb
LCb setrgbcolor
6270 2097 M
63 0 V
187 195 R
-63 0 V
stroke
6652 2292 M
[ [(Helvetica) 220.0 0.0 true true 0 (10)]
] -73.3 MLshow
1.000 UL
LTb
LCb setrgbcolor
6270 2292 M
63 0 V
187 195 R
-63 0 V
stroke
6652 2487 M
[ [(Helvetica) 220.0 0.0 true true 0 (20)]
] -73.3 MLshow
1.000 UL
LTb
LCb setrgbcolor
6270 2487 M
63 0 V
187 196 R
-63 0 V
stroke
6652 2683 M
[ [(Helvetica) 220.0 0.0 true true 0 (30)]
] -73.3 MLshow
1.000 UL
LTb
LCb setrgbcolor
6270 2683 M
63 0 V
187 195 R
-63 0 V
stroke
6652 2878 M
[ [(Helvetica) 220.0 0.0 true true 0 (40)]
] -73.3 MLshow
1.000 UL
LTb
LCb setrgbcolor
6270 2878 M
63 0 V
187 196 R
-63 0 V
stroke
6652 3074 M
[ [(Helvetica) 220.0 0.0 true true 0 (50)]
] -73.3 MLshow
1.000 UL
LTb
LCb setrgbcolor
6270 3074 M
63 0 V
187 195 R
-63 0 V
stroke
6652 3269 M
[ [(Helvetica) 220.0 0.0 true true 0 (60)]
] -73.3 MLshow
1.000 UL
LTb
LCb setrgbcolor
6270 3269 M
63 0 V
187 196 R
-63 0 V
stroke
6652 3465 M
[ [(Helvetica) 220.0 0.0 true true 0 (70)]
] -73.3 MLshow
1.000 UL
LTb
LCb setrgbcolor
6270 3465 M
63 0 V
1.000 UP
stroke
grestore % colour palette end
stroke
grestore
end
showpage
%%Trailer
%%DocumentFonts: Helvetica
